\relax 
\@writefile{toc}{\contentsline {section}{\numberline {1}重なり合った画像を分離する}{1}}
\@writefile{toc}{\contentsline {subsection}{\numberline {1.1}何をするプログラム}{1}}
\@writefile{toc}{\contentsline {subsection}{\numberline {1.2}どこまで移植をしたか}{1}}
\@writefile{toc}{\contentsline {subsection}{\numberline {1.3}実行用画像の取り込み方}{2}}
\@writefile{lof}{\contentsline {figure}{\numberline {1}{\ignorespaces ワークスペースからmatファイルとして保存}}{2}}
\newlabel{fig:save}{{1}{2}}
\@writefile{toc}{\contentsline {section}{\numberline {2}修正コレスキー分解}{3}}
\@writefile{toc}{\contentsline {subsection}{\numberline {2.1}修正コレスキー分解を行い連立1次方程式を解く}{3}}
\@writefile{toc}{\contentsline {subsection}{\numberline {2.2}関数}{3}}
