match before
match end
make_x end

real	0m0.096s
user	0m0.092s
sys	0m0.000s
match before
match end
make_x end

real	0m0.101s
user	0m0.100s
sys	0m0.000s
match before
match end
make_x end

real	0m0.100s
user	0m0.096s
sys	0m0.000s
match before
match end
make_x end

real	0m0.068s
user	0m0.064s
sys	0m0.000s
match before
match end
make_x end

real	0m0.101s
user	0m0.100s
sys	0m0.000s
match before
match end
make_x end

real	0m0.099s
user	0m0.096s
sys	0m0.000s
match before
match end
make_x end

real	0m0.077s
user	0m0.076s
sys	0m0.000s
match before
match end
make_x end

real	0m0.104s
user	0m0.100s
sys	0m0.000s
match before
match end
make_x end

real	0m0.065s
user	0m0.064s
sys	0m0.000s
match before
match end
make_x end

real	0m0.102s
user	0m0.100s
sys	0m0.000s
match before
match end
make_x end

real	0m0.100s
user	0m0.096s
sys	0m0.004s
match before
match end
make_x end

real	0m0.068s
user	0m0.060s
sys	0m0.004s
match before
match end
make_x end

real	0m0.100s
user	0m0.096s
sys	0m0.000s
match before
match end
make_x end

real	0m0.101s
user	0m0.100s
sys	0m0.000s
match before
match end
make_x end

real	0m0.102s
user	0m0.100s
sys	0m0.000s
match before
match end
make_x end

real	0m0.066s
user	0m0.064s
sys	0m0.000s
match before
match end
make_x end

real	0m0.063s
user	0m0.060s
sys	0m0.000s
match before
match end
make_x end

real	0m0.099s
user	0m0.096s
sys	0m0.000s
match before
match end
make_x end

real	0m0.068s
user	0m0.064s
sys	0m0.000s
match before
match end
make_x end

real	0m0.102s
user	0m0.100s
sys	0m0.000s
