237.48	275.19
170.6	262.93
326.97	133.39
326.97	133.39
227.38	135.47
195.27	214.45
169.66	169.2
44.61	285.35
509.68	157.03
470.27	177.23
439.12	121.01
405.22	146.79
398.24	38.86
362.83	61.83
298.27	169.82
194.66	107.85
184.52	74.92
109.88	170.66
85.06	321.21
465.89	90.12
433.9	89.03
427.45	227.48
394.98	37.55
341.81	218.24
295.95	294.13
105.2	169.68
22.39	319.74
510.03	64.65
500.44	88.69
423.98	39.14
423.98	39.14
376.15	290.65
353.54	90.48
353.54	90.48
348.99	292.12
233.56	295.65
232.74	171.28
192.22	320.1
171.87	316.77
164.05	22.87
148.17	196.77
142.22	318.33
142.22	318.33
71.24	294.42
527.79	86.18
521.18	17.14
498.02	225.04
430.11	152.32
430.11	152.32
427.64	38.03
427.64	38.03
355.27	90.68
355.27	90.68
348.28	293.41
346.4	107.37
342.23	167.95
312.86	228.88
210.68	337.13
191.89	136.49
186.57	237.8
125.51	332.09
120.69	302.89
508.42	181.15
489.67	192.57
459.71	153.58
413.96	167.8
383.54	294.01
382.89	243.56
372.35	102.1
367.35	147.1
357.48	244.16
357.48	244.16
329.69	156.37
281.71	44.19
275.99	280.16
272.38	231.81
256.16	209.39
242.81	233.61
206.69	173.29
193.16	85.15
189.39	122.28
186.06	300.56
175.88	222.21
172.46	130.39
153.73	216.8
133.13	144.25
132.6	255.97
72.29	312.49
63.61	153.7
525.32	122.5
526.93	42.97
521.19	16.67
494.8	282.73
478.31	209.87
470.52	66
423.48	305.3
395.27	210.6
390.62	304.08
389.3	161.85
389.3	161.85
383.84	63.64
383.84	63.64
381.02	243.51
381.02	243.51
376.16	163.84
357.45	159.23
345.22	195.88
345.22	195.88
308.22	45.85
302.65	309.44
287.07	235.5
278.49	244.21
264.71	244.19
245.87	200.65
233.09	243.51
228.74	330.17
214.54	241.49
214.54	241.49
193.73	208.05
145.18	141.2
146.16	127.67
146.16	127.67
144.03	245.71
125.14	302.02
124.85	344.93
110.49	332.08
522.99	236.31
514.79	244.6
503.65	293.14
497.54	132.08
468.23	203.81
467.52	343.4
467.52	343.4
465.63	334.89
465.63	334.89
443.75	260.05
434.15	183
405.98	348.87
401.74	53.86
399.51	118.52
399.51	118.52
386.13	295.81
379.88	231.04
378.36	91.52
378.36	91.52
369.71	249.44
369.71	249.44
370.27	238.64
370.27	238.64
360.35	79.13
348.79	197
348.79	197
343.13	305.39
343.02	234.43
315.1	161.71
314.14	103.75
305.14	159.3
303.02	309.01
297.42	14.93
289.82	59.63
267.78	61.3
267.78	61.3
259.42	61.72
254.56	333.41
252.35	83.08
251.16	110.71
250.44	7.01
250.44	7.01
250.44	7.01
242.21	14.82
242.21	14.82
240.08	310.65
240.21	189.17
236.1	334.95
236.1	334.95
232.98	243.2
226.83	320.32
220.63	335.96
213.68	300.57
209.54	146.01
205.4	300.61
203.96	169.38
194.56	144.88
189.57	209.6
184.93	192.33
178.94	11.63
178.05	198.74
177.31	142.2
175.16	206.41
166.54	148.42
163.82	140.28
159.32	337.23
151.24	301.89
145.22	141.32
140.44	301.76
138.81	189.6
133.57	335.38
125.87	197.12
121.14	246.16
110.51	332.39
32.03	310.44
526.73	253.8
513.02	253.02
508.64	142.42
503.2	293.4
489.21	293.03
474.7	199.32
475.3	78.11
462.26	211.05
460.9	347.67
443.9	77.42
430.1	131.64
427.53	139.83
425.24	193.39
424.41	25.77
420.3	99.11
414.44	53.12
414.23	33.31
388.6	23.16
378.3	321.82
378.3	321.82
374.75	114.54
370.58	297.14
368.82	136.84
356.87	304.09
356.85	70.78
356.85	70.78
324.55	77.52
296.1	310.24
293.89	6.85
291.06	216.47
283.04	26.65
280.98	222.41
267.92	221
266.44	202.85
262.17	108.1
256.71	332.38
254.27	220.07
228.65	179.2
228.33	336.36
226.85	161.48
221.49	249.89
219.95	218.89
219.95	218.89
218.13	348.41
217.67	316.5
217.67	316.5
215.21	225.15
201.81	128.37
186.72	203.06
183.38	20.29
179.66	150.95
176.94	185.92
171.37	300.97
165.21	216.76
161.93	301.7
153.12	137.07
151.76	122.15
138.43	189.38
137.03	253.06
118.32	232.89
113.38	301.24
112.07	149.32
78.15	146.24
77	302.83
59.82	325.83
34.37	303.75
25.44	303.92
19.29	309.64
6.52	329.55
533.05	236.86
498.98	12.91
473.05	213.05
469.81	73.95
469.81	73.95
468.19	197
468.19	197
458.11	96.85
445.65	130.42
445.65	130.42
439.68	97.56
437.77	78.63
432.05	74.35
426.34	76.42
423.97	94.75
410.18	26.78
406.78	351.66
407.35	102.2
393.29	188.45
393.29	188.45
392.03	80.64
392.15	69.78
377.22	24.72
368	180.38
348.02	253.42
308.96	153.88
294.46	42.18
287.52	238.1
285.7	349.55
283.83	217.04
281.97	229.09
280.86	7.62
276.95	14.02
276.95	14.02
272.32	216.4
271.95	16.21
271.95	16.21
271	7.91
270.48	311.7
268.13	148.11
268.13	148.11
267.17	75.04
265.62	16.8
260.87	56.37
260.87	56.37
260.81	26.2
259.12	75.2
257.63	331.94
250.59	83.86
240.73	173.38
241.2	9.91
235.84	7.52
234.96	165.07
230.49	190.54
229.59	167.77
227.5	185.83
226.6	7.74
221.9	176.36
221.9	176.36
221.02	238.44
219.63	164.96
217.97	212.01
217.56	181.99
215.79	198.3
213.91	86.82
211.93	124.24
210.1	179.93
209.64	9.5
209.46	13.79
209.46	13.79
207.81	184.51
205.33	134.73
204.19	5.12
201.84	150.92
201.84	150.92
200.53	161.69
195.79	156.95
190.06	158.84
184.15	187.76
182.16	327.47
178.33	157.34
174.55	134.64
173.02	238.27
169.74	190.97
166.88	318.56
166.88	318.56
166.83	123.11
160.68	126.04
158.89	147.01
157.4	314.3
149.31	328.94
142.94	183.69
138.31	200.03
136.79	294.67
135.53	308.17
133.76	328
132.3	285.12
132.3	285.12
130.63	187.93
122.23	294.12
119.93	252.62
112.91	138.57
109.39	308.62
104.48	326.88
104.48	326.88
91.44	199.96
87.85	141.56
81.43	330.13
77.89	199.88
55.04	304.3
48.65	308.94
9.16	310.17
536.33	40.24
534.59	356.61
528.24	242.03
512.41	352.76
504.47	9.21
495.31	275.57
470.92	349.71
468.19	196.72
468.19	196.72
465.05	76.55
465.05	76.55
463.97	195.85
451.68	97.76
439.84	98.39
437.86	78.48
425.78	27.5
422.23	73.9
417.34	28.52
413.34	100.19
409.68	40.02
407.81	242.02
404.48	97.27
404.48	97.27
399.64	166.59
378.6	89
362.02	298.88
333.36	79.2
330.5	71.39
327.1	78.99
325.26	339.77
299.05	329.14
297.52	304.8
289.73	306.85
287.06	227.48
285.66	342.07
282.24	307.7
281.88	228.69
281.2	237.11
280.05	58.22
280.05	58.22
276.37	73.77
275.63	60.87
275.63	60.87
275.36	56.48
274.89	49.24
273.71	307.83
272.36	216.54
270.84	322.05
270.43	311.49
270.32	47.24
267.61	147.56
266.47	307.76
266.15	68.39
266.15	68.39
264.79	214.3
262.59	311.48
255.55	226.64
249.59	6.15
249.59	6.15
249.59	6.15
247.76	25.74
247.76	25.74
241.91	185.02
240.72	9.63
240.15	213.45
240.15	213.45
239.6	180.9
238.89	25.63
238.89	25.63
235.14	165.23
234.73	22.54
234.73	22.54
233.07	307.5
233.01	183.42
231.43	3.87
230.17	349.05
229.37	174.27
229.37	174.27
227.78	185.67
224.39	191.24
221.9	86.5
222.16	18.02
220.82	194.46
217.9	157.29
218.21	9.29
218.21	9.29
217.21	219.99
216.99	343.56
214.92	167.57
210.24	152.8
210.06	248.16
209.1	165.41
203.93	12.54
203.07	179.34
195.2	4.34
193.65	186.72
191.45	198.39
188.39	148.45
183.28	321.25
183.28	321.25
177.37	303.26
177.5	192.1
177.5	192.1
176.9	355.55
176.9	355.55
173.94	126.06
166.28	337.03
165.24	207.19
164.47	222.57
162.06	355.63
159.17	306.98
145.04	306.95
143.13	329.72
142.96	119.8
142.28	343.74
138.79	148.72
138.79	148.72
137.27	204.53
134.25	195.78
128.33	325.7
128.74	315.9
128.03	356.21
126.72	201.99
123.5	285.38
123.5	285.38
120.85	226.3
118.6	268.58
118.6	268.58
116.29	248.11
114.2	314.71
112.92	202.5
109.39	308.26
104.92	139.55
104.77	313.29
104.77	313.29
99.62	200.91
94.21	204.28
81.57	330.31
75.71	307.9
71.02	194.35
64.09	330.04
54.89	304.35
48.81	308.72
522.76	249.87
508.35	139.99
458	97.83
445.72	98.31
444.24	268.66
444.24	268.66
437.24	30.29
436.22	38.6
426.57	71.08
426.57	71.08
411.99	300.32
408.5	356.24
407.47	250.15
403.88	162.36
400.93	251.38
398.56	242.27
398.24	235.94
395.23	66.4
392.95	120.52
388.78	297.94
388.5	66.26
387.31	47.34
381.61	317.05
381.41	46.58
378.86	298.6
378.09	99.4
377.23	81.83
373.05	88.34
371.91	94.61
368.2	98.07
366.96	154.92
352.04	299.42
342.22	80.06
339.04	319.48
339.04	319.48
336.86	163.31
331.63	312.34
331.63	312.34
331.08	75.05
326.13	205.11
322.1	228.39
316.32	299.95
314.25	199.54
314.25	199.54
308.8	154.95
299	229.05
297.53	221.52
295.1	348.73
295.1	348.73
292.48	229.33
291.62	21.42
287.9	22.93
286.77	231.19
283.13	73.45
277.47	304.2
277.47	304.2
275.53	25.75
272.45	29.89
272.64	22.81
272.64	22.81
270.13	83.15
269.33	26.64
266.55	46.42
263.12	83.75
261.04	70.89
260.38	345.48
257.69	311.41
251.6	22.88
249.7	217.04
247.07	306.74
242.94	241.05
232.81	86.43
231.12	111.52
230.67	25.44
230.67	25.44
230.94	11.61
228.19	28.52
227.37	209.25
227.37	209.25
225.56	194.93
224.89	215.8
224.37	219.12
224.07	244.4
223.15	307.09
223.21	171.6
222.73	315.09
222.58	12.2
219.41	327.05
218.56	170.92
215.04	230.63
215.04	230.63
214.82	196.87
214.57	12.46
214.57	12.46
214.02	5.61
211.51	195.02
210.43	169.49
208.28	27.79
208.08	23.47
204.86	328.35
204.75	314.88
205	188.96
203.04	186.34
201.62	133.43
201.05	27.43
200.77	318.05
200.21	230.13
200.55	15.78
200.52	8.34
200.17	281.07
200.3	243.07
199.16	146.46
198.42	261.28
198.1	251.64
196.05	151.29
195.97	23.19
194.6	200.48
193.03	149.64
193.03	149.64
190.26	145.16
189.37	188.57
189.37	188.57
189.75	153.57
188.34	14.99
187.8	215.42
187.8	215.42
187.1	198.86
186.27	11.14
185.62	140.19
184.82	217.62
181.33	137.37
179.45	19.2
175.38	324.23
175.38	324.23
175.21	312.84
175.21	312.84
174.72	328.84
172.11	147.44
169.83	308.96
169.82	72.39
169.39	303.31
166.51	306.2
163.93	202.5
163.93	202.5
163.3	349.47
161.86	213.58
161.86	213.58
153.15	264.51
153.15	264.51
150.86	137.26
149.88	329.77
150.19	304.39
139.92	264.66
137.25	289.44
137.25	289.44
133.58	248.41
126.01	251.68
120.23	332.34
119.56	289.62
119.56	289.62
118.42	272.99
118.42	272.99
117.26	244.03
116.3	264.97
115.72	337.95
112.43	336.91
89.98	330.57
87.62	203.1
84.21	201.4
83.97	307.52
73.8	304.69
46.75	305.13
46.34	326.48
45.75	330.91
25.96	331.35
538.07	247.07
495.41	297.19
470.43	342.66
463.23	97.92
462.34	355.09
437.27	35.24
415.26	297.42
406.81	235.81
402.05	235.96
400.56	300.47
399.51	297.95
397.92	97.33
397.05	300.5
393.12	179.78
385.48	85.32
384.19	99.05
383.37	82.74
381.42	104.83
380.47	85.63
380.01	80.57
379.57	235.8
376.66	85.44
376.2	234.26
376.2	234.26
373.27	85.19
369.91	84.92
367.55	253.89
366.88	234.16
365.84	353.47
363.6	233.54
358.96	73.96
357.58	215.58
351.34	71.04
340.29	207.8
340.29	207.8
338.71	355.96
332.36	316.98
329.7	315.88
328.8	231.54
328.8	231.54
319.39	302.45
319.53	231.65
318.85	79.59
304.44	195.49
304.44	195.49
303.89	310.5
299.36	330.9
299.36	330.9
299.6	218.6
296.15	305.83
291.7	213.99
290.66	310.1
290.58	80.5
285.55	220.63
278.34	52.34
278.34	52.34
273.78	311.62
272.99	17.91
272.46	59.53
272.72	40.89
272.44	35.81
272.44	35.81
270.15	304.05
270.15	304.05
270.15	304.05
268.08	218.54
267.23	10.36
266.9	240.11
266.38	29.54
266.38	29.54
265.24	343.01
261.65	304.06
261.65	304.06
259.87	308.59
255.6	308.65
255.31	215.04
255.48	66.71
251.29	307.52
248.99	224.15
248.36	240.44
246.65	226.16
244.81	85.6
243.26	217.63
242.48	220.14
238.83	218.53
239.2	167.52
237.67	186.95
237.51	86.43
236.84	225.27
236.84	225.27
228	86.86
227.51	221.75
227.51	221.75
227.58	157.33
227.23	112.06
225.42	22.47
225.42	22.47
224	25.25
220.74	186.33
219.88	167.52
220.06	162.13
219.7	189.1
218.16	330.77
218.16	302.6
218	153.96
216.46	222.71
215.3	328.95
215.43	172.89
215.23	151.37
214.93	309.76
214.89	217.39
214.93	159.98
213.98	220.21
213.98	220.21
212.12	217.52
210.93	230.49
210.93	230.49
210.57	305.3
209.82	219.81
209.55	191.48
209.07	156.39
208.38	160.47
208.41	4.95
207.16	221.96
207.04	2.35
207.04	2.35
206.45	149.11
206.09	229.94
205.5	198.07
205.56	88.19
203.96	155.65
203.02	143.35
202.38	305.7
201.05	240.05
200.03	264.45
195.49	264.42
190.5	320.84
189.03	318.44
186.07	318.43
186.32	17.72
185.71	150.9
178.79	320.91
178.32	325.91
178.32	325.91
177.71	289.46
177.71	289.46
176.87	215.5
177.16	210.02
175.18	318.62
172.83	150.85
172.76	320.79
172.76	320.79
172.78	316.39
172.45	215.42
171.83	19.39
170.4	344.89
170.04	264.72
170.04	264.72
170	99.16
169.83	14.8
169.65	351.98
168.86	294.66
168.41	222.41
166.94	62.29
166.6	330.7
166.55	313.65
166.55	313.65
164.28	309.44
163.33	264.57
159.1	214.93
159	207.44
154.38	213.61
153.36	318.72
153.36	318.72
151.83	332.52
152.02	144.57
150.93	307.68
147.59	207.62
145.92	209.59
143.48	354.53
143.48	354.53
142.46	123.83
141.05	208.02
140.19	122.15
137.95	144.46
136.31	273.06
136.31	273.06
135.98	262.37
134.58	281.33
134.58	264.81
131.97	192.22
129.47	273.02
129.47	273.02
129.74	193.45
127.36	281.1
127.36	281.1
126.33	306.9
126.02	312.66
125.62	319.22
124	298.14
122.97	265
122.97	265
121.3	251.12
121.11	202.03
120.31	281.52
120.31	281.52
120.53	278.62
116.72	341.96
117.09	319.03
116.15	331.73
114.6	321.51
114.56	267.47
113.48	93.59
113.48	93.59
113.11	331.41
113.1	289.88
113.1	289.88
112.56	309.47
104.36	307.79
101.63	200.87
101.27	197.92
89.96	278.75
83.29	313.92
83.29	313.92
82.34	283.49
80.94	191.43
80.53	188.36
80.53	188.36
71.2	307.47
68.1	68.06
68.1	68.06
65.54	158.24
64.28	328.2
64.62	161
36.12	326.39
36.12	326.39
35.41	331.47
31.09	305.33
21.8	318.34
12.06	306.02
