-9.357646e+00
-3.919660e+00
-2.239680e+00
-1.621868e+00
-8.981940e-01
-5.052234e-01
2.934240e-01
-3.169609e-01
-4.460233e-01
-4.013041e-01
-9.580034e-02
-1.072094e-01
3.573868e-01
1.536163e-01
1.176762e-01
3.018973e-02
8.221310e-01
5.210642e-01
2.258236e-01
1.143579e-01
1.056583e+00
2.923320e-01
6.348048e-01
7.145070e-01
5.522245e-01
7.385944e-01
7.839708e-01
8.440870e-01
6.458727e-01
6.144929e-01
6.623095e-01
8.468116e-01
8.686521e-01
6.598093e-01
8.105762e-01
6.923895e-01
7.611903e-01
7.424391e-01
7.227735e-01
9.446057e-01
8.269947e-01
7.964970e-01
7.919995e-01
7.164755e-01
7.143320e-01
7.949489e-01
8.027543e-01
7.658821e-01
7.936343e-01
8.147919e-01
8.575006e-01
8.542089e-01
8.230853e-01
7.507642e-01
9.003549e-01
8.680022e-01
7.616229e-01
8.081984e-01
8.001324e-01
8.498137e-01
8.609183e-01
7.787130e-01
8.487893e-01
8.817605e-01
8.124943e-01
8.525458e-01
8.709913e-01
8.252751e-01
7.846253e-01
9.077213e-01
8.167620e-01
8.934192e-01
8.726420e-01
8.686347e-01
9.027105e-01
9.046453e-01
8.664223e-01
8.409106e-01
8.385617e-01
9.139290e-01
8.621308e-01
9.621213e-01
9.093551e-01
8.360140e-01
8.145700e-01
8.352028e-01
8.946985e-01
1.002148e+00
9.050375e-01
8.705972e-01
9.443599e-01
8.723651e-01
8.376099e-01
8.672206e-01
9.422353e-01
9.108120e-01
9.658779e-01
9.460362e-01
9.071618e-01
8.571159e-01
