      0
      3
      5
      8
     12
     14
     20
     22
     28
     29
     30
     31
     33
     37
     39
     40
     43
     44
     47
     49
     53
     55
     57
     61
     62
     64
     66
     68
     69
     71
     74
     83
     85
     88
     90
     91
     92
      1
      2
      3
      4
      5
      7
      9
     12
     13
     19
     24
     31
     35
     39
     41
     42
     49
     51
     53
     54
     56
     57
     58
     60
     61
     62
     70
     73
     76
     79
     80
     81
     83
     86
     87
     88
     91
     92
     95
     96
     98
      2
      4
      6
      9
     15
     17
     21
     24
     31
     37
     41
     43
     44
     45
     51
     53
     55
     62
     64
     68
     69
     70
     79
     80
     82
     84
     85
     87
     88
     89
     90
      0
      2
      3
      4
      7
      9
     10
     11
     12
     13
     14
     15
     19
     24
     27
     34
     35
     37
     38
     41
     42
     43
     45
     47
     48
     50
     52
     56
     59
     63
     64
     67
     68
     70
     72
     74
     75
     78
     82
     85
     87
     88
     91
     92
     98
      4
     11
     22
     23
     28
     30
     31
     32
     33
     36
     38
     39
     40
     42
     49
     51
     55
     56
     57
     70
     83
     86
     89
     91
     93
     97
     98
      0
      2
      5
      6
      9
     11
     14
     16
     17
     18
     19
     20
     21
     23
     29
     30
     31
     32
     33
     37
     38
     39
     40
     42
     44
     50
     51
     52
     54
     61
     65
     80
     82
     91
     93
     95
     97
      0
      2
      3
      5
      6
      8
     14
     16
     19
     20
     21
     28
     32
     33
     34
     37
     40
     42
     46
     48
     49
     53
     55
     56
     57
     58
     60
     62
     65
     66
     69
     70
     71
     73
     83
     85
     87
     88
     90
     93
      1
      4
      6
      7
     10
     15
     17
     18
     23
     29
     30
     31
     33
     35
     40
     42
     43
     45
     47
     49
     52
     54
     57
     60
     61
     63
     64
     66
     68
     70
     72
     73
     74
     77
     78
     79
     81
     82
     86
     87
     93
     96
      2
      3
      5
      8
     10
     14
     15
     16
     19
     21
     23
     24
     25
     29
     30
     33
     34
     35
     41
     42
     43
     45
     46
     47
     50
     51
     56
     59
     66
     67
     76
     77
     78
     80
     81
     84
     85
     86
     87
     89
     90
     92
     93
     94
      1
      4
      9
     13
     14
     21
     22
     23
     24
     25
     27
     30
     31
     38
     39
     40
     41
     46
     51
     54
     57
     58
     62
     65
     66
     68
     70
     71
     73
     75
     76
     77
     80
     81
     83
     85
     88
     89
     90
     95
     97
     99
      0
      1
      7
      8
     10
     11
     12
     15
     16
     17
     20
     25
     26
     32
     33
     35
     40
     41
     48
     51
     52
     53
     54
     58
     59
     61
     63
     66
     68
     71
     73
     75
     77
     80
     81
     82
     85
     86
     88
     90
     92
     94
     95
     96
     97
     98
     10
     11
     15
     16
     21
     25
     30
     33
     34
     35
     37
     38
     40
     42
     49
     52
     54
     55
     57
     58
     59
     60
     64
     69
     76
     79
     80
     81
     87
     90
     93
     95
     96
     97
      2
      4
      7
     11
     12
     17
     18
     22
     25
     27
     29
     31
     32
     34
     40
     42
     45
     46
     51
     55
     61
     66
     68
     69
     74
     75
     77
     79
     80
     83
     86
     92
     96
      1
      4
      5
      6
      9
     12
     13
     14
     17
     18
     19
     20
     21
     22
     25
     28
     31
     33
     34
     35
     40
     45
     50
     52
     57
     59
     60
     63
     65
     75
     76
     78
     79
     80
     83
     85
     87
     88
     90
     93
     95
     96
     99
      1
      2
      6
      9
     14
     23
     27
     28
     29
     31
     32
     35
     36
     38
     40
     41
     43
     49
     50
     53
     56
     58
     60
     61
     62
     63
     64
     66
     70
     72
     74
     76
     77
     79
     81
     83
     86
     88
     91
     92
     94
     96
     97
     98
      0
      3
      5
      7
      8
     13
     15
     18
     19
     22
     26
     29
     30
     32
     33
     35
     36
     37
     40
     41
     43
     45
     47
     49
     51
     52
     54
     55
     56
     57
     61
     62
     64
     69
     70
     71
     73
     75
     76
     79
     80
     81
     82
     86
     89
     90
     94
     95
     97
     99
      0
      3
      4
      7
      8
     12
     13
     14
     15
     16
     20
     21
     22
     27
     30
     32
     33
     35
     38
     42
     43
     45
     47
     49
     50
     51
     56
     59
     61
     65
     68
     69
     70
     71
     72
     74
     75
     77
     81
     84
     85
     90
     91
     96
      0
      1
      3
      7
     10
     12
     13
     15
     16
     17
     18
     20
     22
     23
     24
     29
     32
     33
     35
     39
     40
     43
     47
     48
     49
     54
     55
     56
     58
     61
     63
     66
     67
     68
     81
     84
     86
     89
     93
      6
      7
      9
     11
     13
     15
     16
     18
     19
     25
     27
     30
     31
     32
     34
     35
     38
     39
     41
     43
     45
     47
     48
     50
     54
     56
     58
     59
     60
     62
     64
     66
     74
     76
     77
     78
     79
     80
     84
     88
     89
     91
     97
     98
     99
      5
      6
      7
      9
     13
     16
     17
     19
     20
     23
     24
     25
     26
     28
     29
     31
     33
     34
     37
     40
     41
     42
     43
     50
     52
     53
     54
     55
     58
     62
     63
     66
     67
     68
     71
     72
     73
     75
     77
     80
     81
     83
     84
     86
     87
     90
     93
     94
     96
     97
      0
      1
      5
     11
     16
     17
     20
     22
     26
     27
     30
     32
     34
     35
     41
     45
     46
     47
     48
     52
     56
     58
     62
     64
     68
     83
     84
     85
     88
     93
     96
      2
      3
      5
      7
     12
     13
     14
     19
     20
     21
     22
     25
     30
     31
     33
     34
     36
     38
     43
     47
     48
     49
     51
     55
     59
     60
     61
     62
     63
     64
     68
     74
     75
     79
     83
     84
     85
     87
     89
     90
     95
     96
     97
     99
      1
      6
      8
      9
     16
     19
     21
     22
     25
     27
     32
     34
     36
     41
     44
     48
     49
     50
     53
     55
     58
     62
     64
     65
     76
     80
     81
     82
     84
     89
     95
      0
      1
      2
      3
      9
     11
     12
     13
     14
     15
     16
     19
     21
     23
     25
     26
     27
     30
     35
     36
     38
     39
     48
     50
     52
     53
     56
     58
     60
     62
     63
     64
     71
     73
     74
     75
     79
     80
     83
     85
     86
     88
     94
     96
     97
      3
      6
      9
     13
     14
     16
     22
     24
     31
     32
     33
     35
     43
     44
     53
     54
     57
     58
     61
     62
     66
     69
     70
     71
     72
     75
     83
     90
     91
     93
     94
     97
      0
      2
      6
     11
     13
     14
     24
     25
     28
     29
     31
     34
     37
     38
     42
     43
     44
     45
     48
     49
     51
     54
     55
     60
     65
     67
     73
     74
     75
     79
     82
     84
     85
     89
     91
     92
     94
     95
     96
     98
      0
      3
      4
      7
     11
     15
     16
     19
     26
     28
     32
     35
     36
     38
     39
     46
     48
     50
     55
     64
     66
     68
     72
     75
     77
     79
     83
     84
     85
     87
     95
     98
     99
      1
      2
      3
      7
     10
     14
     15
     17
     19
     22
     24
     26
     27
     28
     29
     30
     32
     38
     41
     45
     47
     48
     50
     55
     56
     59
     60
     62
     67
     68
     70
     71
     72
     77
     85
     86
     87
     89
     90
     93
     99
      2
      5
      7
      8
      9
     10
     11
     12
     13
     16
     17
     19
     20
     22
     25
     26
     28
     32
     36
     37
     39
     43
     46
     47
     50
     58
     62
     63
     67
     69
     72
     76
     81
     82
     86
     88
     90
     91
     92
     95
     96
     97
     98
     99
      5
     11
     14
     15
     23
     24
     26
     29
     31
     36
     39
     40
     41
     51
     53
     58
     61
     66
     67
     68
     69
     70
     71
     72
     74
     75
     76
     85
     89
     91
     92
     93
     95
     96
     97
      7
      8
     20
     22
     26
     29
     30
     31
     36
     38
     42
     44
     45
     55
     57
     58
     59
     60
     64
     66
     67
     68
     69
     74
     78
     79
     83
     84
     86
     87
     91
     92
     96
     97
     98
      0
      1
      2
      5
      8
     12
     16
     18
     19
     24
     25
     30
     31
     34
     36
     40
     41
     44
     47
     48
     49
     50
     52
     55
     56
     57
     62
     65
     66
     68
     70
     76
     78
     81
     84
     85
     86
     90
     92
     93
     95
      0
      5
      6
      8
     10
     11
     16
     19
     20
     22
     26
     27
     30
     31
     32
     33
     34
     40
     41
     48
     49
     50
     52
     53
     59
     60
     64
     67
     69
     71
     74
     78
     79
     80
     81
     83
     85
     87
     94
     97
      1
      6
     10
     13
     15
     17
     19
     21
     22
     23
     25
     26
     27
     32
     33
     36
     37
     39
     43
     45
     51
     53
     54
     55
     58
     60
     61
     62
     65
     66
     68
     70
     71
     72
     73
     76
     77
     78
     88
     89
     90
     93
     95
     97
      2
      3
      4
      5
      6
      8
     10
     11
     12
     13
     15
     17
     18
     19
     24
     26
     28
     29
     32
     34
     38
     40
     41
     42
     43
     45
     46
     47
     48
     50
     53
     59
     62
     65
     66
     67
     69
     71
      3
      6
      8
      9
     10
     16
     17
     18
     19
     22
     25
     26
     29
     30
     32
     34
     35
     38
     41
     43
     45
     46
     47
     48
     51
     52
     57
     58
     59
     62
     65
     73
     76
     78
     79
     80
     82
     84
     96
     98
      0
      7
      8
      9
     13
     14
     16
     23
     24
     25
     27
     28
     30
     31
     33
     34
     35
     36
     38
     40
     42
     43
     47
     48
     53
     58
     62
     64
     71
     72
     74
     76
     77
     79
     80
     82
     83
     85
     89
     90
     91
     93
     95
     96
     97
      0
      1
      4
      6
      8
     13
     14
     16
     17
     21
     23
     24
     25
     26
     29
     31
     34
     36
     37
     41
     42
     46
     48
     49
     50
     52
     53
     54
     59
     62
     66
     71
     72
     73
     77
     78
     80
     81
     82
     83
     86
     87
     88
     89
     90
     91
     93
     96
      1
      2
      5
     10
     17
     18
     22
     23
     27
     28
     30
     31
     32
     34
     38
     43
     45
     46
     48
     55
     56
     58
     59
     62
     65
     66
     69
     70
     71
     72
     77
     80
     82
     83
     84
     86
     87
     88
     89
     93
     95
     96
     97
      1
      3
      5
      7
     12
     13
     14
     25
     26
     32
     39
     45
     46
     48
     53
     54
     56
     57
     67
     70
     71
     74
     77
     78
     81
     82
     86
     91
     96
     97
      1
      2
      4
      5
      7
     10
     11
     15
     19
     20
     24
     34
     36
     37
     38
     40
     41
     51
     52
     53
     54
     55
     57
     59
     60
     61
     65
     67
     74
     77
     79
     81
     83
     84
     85
     86
     87
     88
     89
     91
     94
      0
      1
      5
      7
     10
     18
     19
     23
     24
     27
     29
     30
     32
     33
     35
     37
     41
     43
     46
     48
     49
     51
     55
     56
     63
     66
     68
     69
     70
     71
     72
     73
     78
     79
     80
     84
     86
     88
     92
     93
     96
      2
      8
      9
     20
     21
     23
     27
     28
     29
     30
     36
     41
     42
     43
     44
     46
     49
     50
     54
     55
     58
     61
     63
     66
     67
     70
     71
     74
     80
     81
     89
     90
     91
      7
      9
     10
     15
     16
     18
     20
     26
     30
     34
     35
     36
     37
     38
     41
     43
     44
     45
     49
     50
     51
     53
     54
     55
     56
     57
     59
     62
     63
     65
     66
     67
     70
     73
     74
     75
     76
     79
     82
     87
     91
     92
     93
     94
     98
      2
      4
      6
     10
     13
     16
     17
     18
     22
     23
     27
     33
     39
     41
     42
     43
     44
     47
     49
     51
     56
     57
     59
     62
     65
     66
     68
     69
     71
     72
     74
     75
     76
     79
     80
     81
     82
     83
     85
     86
     91
     94
     99
      0
      1
      9
     10
     12
     13
     14
     17
     18
     20
     22
     24
     27
     33
     38
     39
     43
     44
     45
     46
     49
     53
     54
     57
     61
     65
     67
     72
     76
     82
     84
     86
     90
     91
     92
     95
     97
     98
     99
      1
      4
      6
      8
     10
     11
     15
     19
     26
     29
     32
     36
     37
     41
     46
     49
     50
     51
     53
     55
     58
     61
     64
     66
     70
     71
     72
     73
     75
     79
     80
     82
     83
     84
     88
     89
     91
     92
     99
      1
      2
      6
      9
     11
     12
     13
     17
     18
     21
     28
     30
     32
     33
     41
     42
     47
     48
     50
     53
     54
     57
     59
     61
     64
     66
     67
     68
     70
     71
     74
     75
     78
     81
     82
     85
     88
     89
     91
     94
     95
      3
      5
     13
     17
     21
     25
     26
     27
     29
     36
     39
     40
     41
     45
     47
     48
     50
     55
     56
     58
     61
     63
     66
     71
     78
     80
     83
     84
     85
     88
     89
     90
     92
     95
      5
     12
     14
     15
     18
     22
     26
     28
     29
     37
     39
     43
     48
     49
     51
     53
     55
     56
     57
     58
     59
     64
     66
     67
     76
     79
     80
     82
     84
     89
     90
     91
     92
     94
      0
      1
      4
      7
      8
     11
     12
     15
     17
     18
     20
     21
     26
     29
     30
     36
     38
     40
     41
     43
     48
     49
     50
     52
     53
     55
     57
     58
     64
     66
     67
     69
     73
     75
     76
     77
     78
     79
     80
     82
     85
     86
     88
     94
     95
     96
     97
     98
      1
      2
      7
      8
      9
     10
     11
     13
     15
     17
     19
     23
     30
     31
     37
     39
     40
     41
     42
     49
     51
     53
     57
     59
     60
     62
     65
     66
     67
     75
     77
     78
     79
     80
     84
     88
     89
     92
     97
      4
      5
      6
      9
     10
     11
     13
     15
     18
     23
     24
     26
     27
     30
     32
     37
     38
     41
     42
     43
     46
     48
     52
     53
     55
     56
     61
     62
     64
     65
     66
     70
     74
     76
     84
     85
     87
     88
     89
     97
      3
      5
      7
      9
     11
     13
     14
     18
     24
     26
     27
     30
     32
     38
     40
     41
     42
     43
     45
     48
     50
     51
     53
     55
     62
     63
     64
     65
     66
     67
     73
     74
     75
     78
     83
     87
     88
     89
     91
     94
     95
     97
     98
      0
      2
      9
     10
     12
     15
     18
     27
     29
     33
     35
     36
     37
     38
     39
     41
     50
     51
     53
     54
     56
     57
     60
     62
     64
     67
     69
     75
     76
     78
     84
     87
     90
     91
     92
     94
     97
     98
     99
      1
      3
      5
      8
      9
     12
     15
     17
     19
     23
     27
     30
     32
     40
     45
     47
     48
     50
     51
     55
     59
     61
     62
     63
     64
     67
     69
     74
     76
     79
     81
     83
     88
     89
     91
     94
     99
      3
      8
      9
     10
     12
     16
     17
     21
     23
     25
     31
     34
     37
     40
     41
     42
     43
     44
     46
     48
     49
     52
     53
     56
     57
     62
     65
     67
     68
     69
     70
     71
     72
     73
     78
     80
     84
     85
     87
     88
     92
     94
     98
     99
      1
      4
      5
      7
      8
     13
     14
     17
     18
     20
     22
     23
     24
     26
     32
     35
     38
     40
     41
     45
     46
     47
     50
     51
     52
     53
     54
     55
     56
     57
     58
     59
     60
     64
     67
     69
     75
     79
     81
     82
     89
     91
     92
     95
     98
     99
      1
      5
      6
      7
      8
      9
     11
     12
     13
     14
     20
     22
     23
     26
     27
     31
     32
     35
     39
     40
     48
     50
     51
     56
     58
     59
     60
     62
     64
     71
     72
     83
     84
     86
     87
     91
     93
     94
     97
     98
      3
      4
      8
      9
     10
     11
     14
     19
     22
     25
     26
     35
     37
     38
     39
     41
     43
     44
     45
     46
     47
     59
     60
     64
     66
     69
     70
     72
     79
     81
     82
     87
     93
     94
      1
      5
     10
     11
     12
     13
     15
     20
     21
     22
     23
     25
     26
     27
     31
     33
     34
     36
     37
     43
     50
     55
     60
     64
     66
     70
     71
     72
     73
     74
     77
     80
     81
     82
     85
     90
     92
     93
     98
      2
      4
      7
      9
     10
     11
     16
     17
     21
     22
     23
     27
     29
     33
     35
     38
     40
     41
     42
     44
     45
     47
     48
     50
     53
     55
     57
     59
     61
     62
     63
     64
     65
     66
     68
     74
     77
     80
     81
     84
     90
     98
      1
      2
      5
      6
      8
     12
     13
     15
     17
     20
     21
     25
     29
     34
     37
     38
     39
     40
     44
     46
     51
     52
     53
     54
     56
     60
     62
     64
     65
     66
     67
     70
     72
     80
     82
     84
     86
     88
     90
     91
     92
     93
     97
     98
     99
      1
      4
      5
      9
     10
     12
     13
     14
     16
     17
     22
     23
     27
     31
     32
     38
     42
     44
     48
     49
     50
     53
     56
     58
     60
     63
     64
     67
     70
     71
     74
     75
     80
     81
     82
     85
     89
     90
     96
     97
      1
      3
      4
     10
     13
     16
     28
     31
     32
     33
     35
     37
     40
     41
     42
     44
     45
     46
     47
     48
     53
     55
     56
     57
     58
     60
     61
     63
     64
     65
     67
     69
     71
     72
     75
     76
     82
     83
     84
     85
     86
     93
     97
      0
      6
      9
     12
     13
     18
     19
     21
     26
     30
     34
     35
     37
     38
     39
     40
     47
     48
     50
     51
     52
     53
     55
     57
     60
     62
     65
     66
     73
     74
     76
     77
     78
     79
     80
     81
     84
     86
     87
     95
     98
      2
      3
      4
      5
      6
      7
      8
     12
     13
     14
     18
     22
     24
     27
     32
     33
     34
     37
     40
     43
     46
     47
     50
     54
     57
     61
     66
     71
     73
     74
     75
     76
     79
     82
     83
     84
     86
     87
     90
     93
     94
     95
     98
      2
      6
      7
      9
     12
     13
     14
     19
     28
     30
     31
     32
     35
     38
     43
     45
     49
     50
     51
     58
     62
     66
     67
     68
     69
     74
     75
     76
     78
     80
     83
     84
     85
     86
     91
     93
     94
     96
     97
     98
      2
      5
      6
      9
     11
     12
     13
     14
     16
     18
     19
     22
     23
     24
     25
     26
     28
     32
     35
     36
     39
     45
     48
     50
     52
     53
     55
     56
     59
     62
     65
     66
     68
     75
     76
     81
     88
     90
     92
     93
     94
     97
     98
     99
      1
      3
      4
      7
      9
     20
     23
     28
     32
     36
     37
     41
     43
     46
     48
     50
     51
     53
     54
     56
     59
     60
     63
     65
     66
     68
     69
     70
     71
     72
     77
     81
     83
     89
     90
     97
      0
      1
      6
      8
      9
     11
     18
     20
     22
     23
     24
     26
     27
     29
     34
     35
     36
     37
     38
     39
     40
     42
     43
     44
     47
     49
     50
     53
     54
     56
     63
     64
     66
     70
     71
     74
     77
     81
     83
     88
     89
     90
     91
     92
     93
     96
     99
      1
      4
      8
      9
     11
     12
     13
     14
     15
     16
     17
     18
     22
     23
     26
     28
     30
     35
     41
     42
     44
     45
     48
     49
     50
     53
     58
     64
     69
     70
     71
     76
     78
     79
     86
     88
     92
     94
     96
     99
      1
      2
      9
     10
     11
     12
     14
     21
     22
     28
     30
     32
     33
     34
     43
     45
     48
     49
     51
     54
     55
     60
     64
     65
     66
     67
     68
     72
     74
     76
     77
     82
     86
     95
     96
     98
     99
      3
      5
      7
      8
      9
     12
     13
     24
     25
     28
     29
     30
     36
     50
     52
     54
     55
     59
     66
     71
     72
     73
     75
     76
     77
     78
     79
     80
     82
     83
     84
     86
     88
     89
     92
     95
     96
     97
      1
      3
      4
      6
      9
     14
     15
     16
     24
     25
     28
     29
     30
     32
     33
     35
     36
     38
     39
     42
     45
     51
     52
     55
     57
     58
     59
     60
     62
     63
     64
     68
     70
     74
     75
     81
     83
     86
     87
     95
      1
      2
      5
      7
      9
     11
     16
     17
     18
     21
     23
     25
     26
     31
     33
     34
     39
     41
     42
     45
     48
     51
     52
     53
     55
     58
     61
     63
     67
     70
     72
     73
     74
     75
     79
     83
     84
     85
     93
     96
      1
      2
      6
     11
     12
     13
     16
     19
     20
     25
     26
     27
     29
     31
     33
     34
     35
     37
     39
     40
     43
     48
     57
     62
     63
     66
     67
     68
     71
     72
     76
     77
     78
     81
     82
     85
     87
     96
     99
      2
      3
      4
      6
     15
     22
     27
     28
     29
     31
     34
     36
     37
     38
     39
     41
     45
     46
     47
     49
     50
     51
     52
     55
     57
     58
     60
     61
     63
     65
     67
     72
     74
     77
     78
     79
     80
     85
     86
     87
     91
     94
     96
     98
      1
      4
     12
     15
     16
     18
     24
     29
     30
     31
     32
     33
     35
     39
     41
     43
     45
     49
     51
     53
     58
     62
     63
     65
     69
     72
     77
     78
     80
     82
     84
     86
     88
     90
     91
     92
     94
     97
     98
      0
      5
      8
     10
     11
     17
     18
     20
     26
     27
     31
     32
     33
     38
     39
     41
     47
     52
     54
     61
     62
     64
     69
     71
     74
     77
     79
     80
     84
     86
     88
     91
     92
     93
     95
     97
     98
      0
      1
      2
      8
     11
     12
     15
     16
     18
     22
     25
     27
     30
     35
     36
     38
     39
     44
     47
     49
     52
     55
     57
     60
     62
     66
     69
     71
     74
     76
     77
     78
     80
     81
     82
     83
     85
     86
     87
     89
     92
     94
     99
      0
      3
      5
      8
      9
     11
     14
     16
     23
     26
     29
     30
     31
     33
     38
     40
     42
     44
     45
     46
     48
     49
     50
     52
     58
     60
     61
     62
     64
     65
     69
     73
     76
     77
     78
     79
     81
     86
     89
     90
     93
     94
      1
      3
      4
      5
     10
     16
     22
     27
     33
     36
     37
     38
     43
     45
     46
     47
     49
     54
     59
     60
     65
     66
     67
     69
     72
     74
     76
     77
     82
     83
     86
     87
     88
     90
     94
     95
     17
     18
     20
     21
     23
     26
     27
     29
     34
     37
     38
     39
     41
     42
     44
     46
     49
     53
     56
     57
     60
     63
     65
     66
     70
     71
     72
     74
     80
     83
     86
     89
     92
     93
     94
     96
     11
     12
     16
     22
     24
     25
     26
     27
     28
     30
     33
     36
     41
     42
     45
     46
     49
     51
     55
     59
     61
     63
     64
     67
     69
     72
     73
     75
     77
     83
     84
     87
     89
     93
     94
     95
     98
     99
      6
     10
     16
     19
     22
     25
     29
     30
     32
     33
     38
     39
     41
     43
     47
     48
     49
     51
     53
     55
     56
     59
     62
     64
     65
     66
     68
     72
     74
     75
     77
     78
     80
     82
     84
     85
     86
     90
     96
      0
      3
      4
      6
     12
     14
     15
     18
     20
     21
     22
     23
     26
     27
     29
     30
     31
     37
     42
     45
     47
     48
     49
     50
     51
     53
     56
     57
     58
     59
     60
     61
     64
     65
     68
     69
     72
     74
     80
     81
     83
     86
     87
     88
     95
      0
      5
      6
      7
     10
     12
     13
     21
     27
     28
     34
     36
     38
     46
     48
     49
     51
     52
     57
     62
     66
     67
     70
     71
     73
     74
     77
     79
     87
     88
     90
     95
     99
      1
      4
      5
      6
      8
      9
     17
     19
     20
     21
     24
     25
     26
     28
     29
     30
     31
     38
     39
     41
     45
     49
     52
     54
     56
     57
     58
     62
     72
     74
     75
     76
     81
     83
     86
     88
     89
     90
     91
     92
     97
      6
      8
     10
     11
     12
     20
     22
     23
     33
     34
     36
     38
     40
     47
     48
     49
     50
     51
     55
     64
     66
     68
     71
     85
     86
     87
     88
     89
     92
     93
     95
     97
     98
      0
      3
      4
      6
      9
     12
     14
     17
     18
     19
     21
     22
     23
     24
     27
     32
     36
     44
     45
     46
     48
     49
     54
     62
     63
     64
     65
     70
     71
     73
     75
     79
     80
     82
     84
     86
     90
     91
     94
     97
      4
      5
      6
      9
     11
     12
     13
     16
     24
     25
     26
     27
     28
     30
     33
     38
     43
     45
     54
     58
     60
     63
     64
     65
     69
     73
     76
     78
     80
     81
     84
     85
     88
     89
     91
     93
     94
     96
     97
     98
     99
      0
      5
      8
      9
     11
     12
     17
     21
     22
     23
     25
     26
     30
     32
     37
     38
     39
     41
     42
     43
     44
     45
     47
     48
     51
     54
     55
     60
     61
     65
     67
     68
     70
     75
     76
     77
     78
     79
     82
     83
     84
     85
     88
     89
     92
     93
     94
     95
     97
      3
      5
      8
     12
     13
     18
     20
     21
     26
     29
     30
     35
     36
     39
     46
     47
     50
     51
     53
     54
     55
     58
     62
     63
     66
     70
     71
     72
     74
     75
     77
     81
     82
     83
     86
     92
     93
     94
     97
      0
      1
      2
      6
      8
      9
     10
     12
     17
     20
     21
     25
     28
     30
     31
     32
     36
     37
     38
     43
     44
     45
     46
     48
     53
     56
     60
     61
     65
     67
     69
     70
     73
     75
     76
     77
     78
     80
     81
     83
     84
     87
     89
     93
     94
     95
     97
      2
      4
      6
     10
     14
     15
     20
     21
     22
     24
     27
     29
     30
     33
     35
     41
     42
     43
     49
     50
     68
     70
     73
     77
     80
     81
     85
     88
     89
     90
     92
     93
     95
     96
     98
      0
      5
      6
      7
     12
     13
     15
     18
     19
     20
     22
     24
     28
     29
     32
     35
     37
     38
     41
     43
     44
     47
     48
     54
     55
     56
     57
     58
     63
     65
     70
     71
     73
     76
     94
     95
     96
     97
      0
      2
      7
      8
      9
     12
     14
     15
     17
     21
     22
     27
     28
     30
     32
     34
     37
     42
     44
     45
     47
     53
     58
     62
     64
     65
     66
     67
     68
     69
     77
     81
     83
     84
     85
     88
     89
     93
     97
      2
     10
     11
     13
     14
     15
     16
     23
     26
     27
     29
     30
     31
     35
     36
     40
     42
     44
     47
     51
     52
     54
     56
     61
     65
     66
     72
     83
     84
     87
     96
     98
     99
      2
      3
      4
     12
     13
     14
     15
     19
     21
     22
     27
     30
     31
     32
     35
     41
     42
     43
     44
     46
     47
     48
     49
     52
     55
     56
     59
     60
     61
     67
     70
     71
     72
     73
     74
     75
     76
     77
     79
     81
     82
     84
     87
     90
     93
     94
     96
     97
     99
