235.3	236.76
235.3	236.76
96.27	221.22
174.43	419.13
174.43	419.13
263.16	102.84
150.97	92.81
202.68	134.17
326.41	189.97
325.92	188.23
312.46	226.82
153.03	212.11
74.27	212.2
64.06	356.89
331.66	303.94
194.96	77.06
110.37	335.59
40.69	118.97
304.19	278.42
230.43	343.45
207.74	105.91
138.94	252.93
136.71	288.32
115.12	123.81
98.86	98.36
305.84	297.2
289.13	326.62
283.67	250.53
226.3	125.3
226.3	125.3
215.55	326.94
192.94	168.87
185.58	326.16
173.97	393.85
159.69	386.33
140.82	354.07
139.86	251.93
110.57	436.04
100.45	318.35
73.77	271.43
35.78	113.73
17.14	124.94
14.86	427.56
14.86	427.56
339.49	225.12
286.01	281.12
260.72	342.29
218.38	294.14
218.38	294.14
214.51	370.22
212.21	438.23
209.54	455.7
206.32	150.95
188.58	342.02
183.73	271.3
183.73	271.3
169.82	352.69
164.26	167.13
162.01	342.53
155.33	231.21
135.85	414.61
133.98	266.8
122.43	352.12
117	294.39
118.05	229.68
112.36	450.87
107.26	207.84
96.79	452.83
83.02	390.11
83.02	390.11
69.05	251.78
69.05	251.78
61.92	331.98
61.92	331.98
55.77	193.94
46	369.69
36.28	336
36.28	336
346.93	254.37
346.93	254.37
336.33	126.31
288.76	267.29
266.83	284.93
263.27	455.06
262.75	455.02
212.05	417.85
203.4	364.38
195.83	379.82
192.16	309.49
183.42	404.79
178.16	58.1
178.16	58.1
171.31	322.21
166.57	214.86
146.37	366.02
146.4	338.41
146.4	338.41
101.63	79.36
101.63	79.36
99.7	220.18
89.68	132.77
85.94	345.57
80.34	333.28
80.34	333.28
45.47	344.03
46.46	317.98
46.87	192.47
9.81	243.94
347.44	254.98
347.44	254.98
346.43	130.06
286.69	427.15
286.69	427.15
285.18	434.89
282.67	277.01
277.61	134.03
268.07	120.44
221.59	425.96
221.59	425.96
211.69	444.56
204.69	266.21
204.69	266.21
204.69	266.21
202.2	176.21
192.9	299.85
188.29	448.54
186.23	440.55
185.39	157.54
186.48	143.13
184.39	189.05
184.39	189.05
178.91	56.85
178.91	56.85
167.12	189.43
150.16	425.5
150.16	425.5
148.15	247.08
136.52	403.06
117.05	110.14
107.45	228.82
107.45	228.82
98.77	234.36
98.77	234.36
96.34	273.73
73.08	275.68
70.76	231.72
66.34	202.04
60.34	404.15
57.58	391.9
42.47	374.12
37.05	380.7
36.71	316.77
21.56	129.02
16.18	210.17
342.47	233.78
333.02	245.9
313.65	251.94
308.14	309.17
305.29	251.35
296.27	316.35
293.93	274.86
286.07	257.87
279.82	249.67
277.46	126.36
276.99	133.47
252.46	434.17
241.61	127.43
236.69	419.91
233.44	133.81
220.52	74.32
217.71	450.78
213.95	432.96
208.09	140.86
203.26	366.5
201.76	448.5
201.76	448.5
200.69	456.46
200.69	456.46
184.98	156.8
184.11	341.23
184.32	310.95
184.32	310.95
183.07	377.92
179.67	448.78
177.95	154.02
177.95	154.02
174.35	444.38
172.17	347.99
151.92	402.67
150.83	204.33
144.53	227.63
130.43	136.19
96.41	456.51
52.78	276.89
45.79	429.4
45.79	429.4
40.56	434.57
40.56	434.57
30.93	308.95
30.3	323.12
28.72	346.43
25.12	316.35
21.9	141.09
20.46	308.45
5.92	332.54
4.67	423.46
351.64	262.42
339.87	254.78
293.86	129.76
286.91	245
281.38	456.82
273.64	253.01
256.81	281.11
256.81	281.11
205.44	117.14
200.72	315.09
201.48	149.95
200.57	325.72
198.83	375.43
191.84	146.19
188.65	393.87
188.65	393.87
188.16	150.19
179.03	308.02
173.93	117.17
173.15	325.89
167.88	315.11
164.06	346.47
145.29	343.12
141.64	260.05
140.99	349.98
140.99	349.98
140.99	349.98
139.95	408.8
127.72	283.45
117.75	210.3
117.75	210.3
115.41	203.95
95.43	445.26
79.75	441.83
79.75	441.83
79.14	397.13
71.29	390.17
60.84	447.6
55.46	400.69
51.08	443.28
51.08	443.28
51.09	186.05
49.96	132.02
37.47	424.71
19.24	345.59
13.53	308.35
12.14	315.41
9.96	347.66
352.79	268.17
338.29	118.9
320.86	253.55
303.07	306.36
300.75	255.75
300.75	255.75
281.7	451.12
275.8	279.62
270.39	454.42
267.09	275.21
267.09	275.21
263.6	280.06
260.87	288.75
260.87	288.75
222.49	317.39
211.27	294.03
209.9	152.05
208.65	298.89
206.4	326.97
202.83	299.01
198.03	332.13
192.8	179.88
189.32	455.35
175	444.81
167.77	320.56
161.82	323.98
145.03	343.39
139.74	342.71
139.74	342.71
134.03	350.2
125.96	346.46
95.99	342.68
77.51	385.01
75.99	391.12
71.34	390.02
67.24	189.71
61.48	137.03
60.58	279.97
57.61	133.14
54.73	447.24
53.71	136.24
53.53	190.66
51.01	186.68
49.66	132.61
45.04	184.77
35.73	104.08
30.91	331.28
22.49	429.9
18.48	345.24
13.53	308.46
6.25	436.21
3.12	234.55
3.18	215.84
2.37	328.31
303.71	260.96
301.26	267.41
296.18	256.56
296.18	256.56
292.28	254.79
286.14	250.56
276.28	247.22
270.82	277.29
212.48	313.06
196.03	322.73
158.83	195.46
125.33	364.99
119.3	368.59
117.35	369.88
82.32	372.64
61.93	276.16
47.07	280.55
38.69	106.84
25.11	426.42
12.88	206.96
10.58	305.52
2.37	244.12
281.48	255.35
281.48	255.35
272.59	118.3
201.77	319.51
198.9	321.09
197.8	147.91
196.48	150.73
190.84	325.67
153.43	347.44
148.08	350.44
145.27	352.05
132.42	360.46
102.31	378.94
102.31	378.94
93.61	384
43.64	283.43
38.09	375.95
