234.98	257.86
234.98	257.86
201.75	438.52
146.47	340.85
146.47	340.85
109.83	257.57
116.3	256.37
264.38	118.21
189.53	242.4
123.65	190.71
107.83	457.09
83	335.59
325.81	205.48
314.16	250.37
233.88	81.85
152.72	233.09
43.46	134.37
331.24	326.67
301.53	120.18
225.61	141.99
225.61	141.99
207.9	115.14
135.82	305.32
124.88	79.38
31.23	464.33
333.93	125.36
304.14	301.41
301.1	321.7
228.78	169.8
19.98	403.18
334.76	321.76
301.84	321.25
284.96	272.03
229.07	365.6
225.75	406.84
225.75	406.84
211.25	393.59
177.51	368.87
151.6	252.04
141.54	389.89
112.27	315.23
25.9	199.14
18.71	387
336.11	318.93
338.5	144.07
311.61	303.43
289.14	480.97
287.95	289.81
285.09	303.36
215.4	348.35
208.74	166.97
192.33	315.52
190.36	242.97
187.15	406.56
188.82	345.89
173.27	413.79
174.99	339.99
174.99	339.99
165.66	359.03
138.33	54.56
106.04	407.88
105.4	299.13
85.92	299.14
78.94	409.41
78.94	409.41
51.41	282.47
34.89	278.04
34.41	121.95
25.04	313.08
19.51	138.63
12.4	274.92
10.57	228.05
346.31	401.71
346.38	277.07
314.09	271.68
297.88	269.7
280.4	152.71
276.33	128.81
265.69	307.11
263.49	474.24
243.81	147.85
219.36	314.09
219.36	314.09
216.96	471.78
191.74	134.55
186.19	205.05
183.11	270.78
183.11	270.78
167.21	135.92
165.36	404.59
166.92	212.12
158.39	441.81
142.66	290.08
127.06	425.04
119.31	465.34
109.09	45.34
109.09	45.34
107.63	61.08
92.12	147.52
77.87	149.55
75.41	212.2
64.12	219.09
56.42	422.93
52.79	409.92
46.57	308.39
44.02	364.68
39.85	435.81
25.89	338.75
10	445.79
10	445.79
346.85	278.2
342.71	257.43
283.24	447.49
282.24	299.78
280.89	454.93
279.18	151.62
269.51	136.92
244.63	145.85
240.42	137.51
208.96	478.93
205.13	265.99
197.74	353.89
185.87	175.23
185.33	418.84
168.01	233.54
166.94	212.13
157.66	418.67
148.31	264.33
141.98	309.59
141.98	309.59
139.99	443.23
130.51	435.38
125.22	58.22
125.22	58.22
123.06	444.23
112.66	190.92
112.66	190.92
112.66	190.92
105.48	182.77
105.48	182.77
104.48	196.4
97.82	422.59
97.82	422.59
90.32	414.59
42.4	340.95
39.13	392.16
36.4	289.79
36.32	305.03
26.77	339.71
11.28	296.21
333.43	269.42
330.79	132.86
325.07	137.13
287.08	267.3
281.56	454.45
279.01	142.89
279.01	142.89
255.64	303.15
255.64	303.15
234.13	152.49
228.64	43.64
228.01	57.89
225.16	135.15
219.39	341.36
185.9	173.29
183.67	361.21
169.34	147.51
169.34	147.51
157.01	54.59
157.01	54.59
150	191.14
139.67	386.27
139.23	421.6
139.08	222.63
117.02	54.68
112.03	420.09
80.15	459
80.15	459
76.45	194.42
64.93	217.73
42.75	149.15
41.69	446.68
40.13	278.76
40.13	278.76
29.04	309.91
23.08	153.26
15.7	370.71
6.72	358.89
351.01	286.56
296.2	146.45
286.56	279.76
279.47	272.83
279.47	272.83
265.89	297.87
206.19	176.81
205.37	391.79
186.1	172.36
166.6	420.22
159.45	353.76
144.94	436.9
127.22	293.41
123.82	58.78
123.82	58.78
110.94	444.36
99.74	407.64
82.65	218.33
83.42	207.33
72.63	409.52
67.2	205.46
56.37	465.75
52.84	415.74
46.88	461.39
46.88	461.39
46.14	426.67
45.32	201.18
39.8	213
36.54	451.26
36.54	451.26
22.78	304.04
15.47	219.86
14.98	435.83
11.82	319.68
4.8	303.81
5.43	290.77
341.11	136.35
336.49	138.04
299.94	266.41
293.83	134.27
276.57	135.14
274.76	301.99
273.49	147.02
263.31	302.16
263.31	302.16
259.81	311.12
259.81	311.12
201.4	339.9
200.69	165.71
197.38	168.62
193.35	423
185.43	329.43
180.21	422.96
134.74	437.32
132.1	293.05
127.28	293.23
67.51	408.74
60.92	214.01
57.79	147.87
50.37	465.97
45.01	201.51
34.92	202.51
16.12	318.4
12.38	359.33
8.11	314.78
302.85	283.39
296.21	279.9
296.21	279.9
291.74	277.62
286.1	272.82
276	269.91
270.02	299.94
255.11	309.27
192.56	164.43
150.96	442.02
47.15	206.01
40.98	440.13
40.37	119.39
19.14	446.95
300.83	290.03
300.22	278.67
300.22	278.67
267.45	301.45
62.74	151.88
