440.58	75.38
281.76	271.19
437.14	146.71
205.94	150.97
388.74	181.51
203.37	275.06
148.62	181.6
407.41	98.79
170.98	119.3
166.77	227.86
83.88	326.87
86	181.79
426.33	54.5
285.1	41.18
231.81	308.79
191.79	309.5
173.96	150.03
112.82	123.21
52.77	176.85
515.48	246.38
515.48	246.38
496.03	203.15
477.78	58.06
477.78	58.06
473.13	78.21
466.61	178.41
467.49	102.66
380.32	239.99
372.55	53.97
368.62	110.13
343.71	287.26
342.35	167.3
342.35	167.3
339.87	28.75
308.58	234.53
159.93	18.7
125.92	231.89
112.36	150.06
75.85	176.25
36.73	288.66
510.92	227.11
510.92	227.11
504.28	151.62
477.56	37.9
464.06	240.38
457.35	210.91
418.41	195.16
342.37	166.83
342.37	166.83
342.37	166.83
331.94	106.22
263.15	308.5
262.03	85.89
260.28	26.59
191.49	202.72
191.49	202.72
180.37	243.65
135.85	118.7
128.66	229.24
113.02	327.45
105.49	308.35
83.23	287.88
74.37	174.91
522.51	190.46
522.51	190.46
509.83	173.12
508.94	61.96
508.94	61.96
496.95	289.63
493.02	37.79
491.41	143.34
407.3	185.21
404.26	54.42
346.32	118.16
315.55	210.17
314.08	184.36
314.08	184.36
293.15	254.55
284.91	305.58
237.5	243.86
193.4	230.02
181.3	185.47
173.78	217.14
165.68	319.34
166.37	134.27
154.44	306.34
146.69	140.62
126.18	309.86
108.4	100.36
108.4	100.36
86.47	327.56
86.47	327.56
56.96	307.18
58.57	146.93
505.57	249.64
496.67	117.06
496.56	56.88
496.56	56.88
488.29	99.25
475.4	200.14
458.49	118.33
454.35	274.8
424.46	325.1
397.68	41.58
395.26	81.2
384.09	300.34
382.34	108.69
360.03	37.83
348.15	293.49
348.88	254.04
348.88	254.04
348.53	177.82
348.36	129.9
337.8	258.63
337.8	258.63
327.36	254.03
316.58	92.44
306.75	303.92
300.51	60.85
295	117.46
286.41	243.61
257.68	235.74
258.23	53.76
243.1	119.6
226.23	232.56
220.11	178.57
206.33	18.64
206.33	18.64
193.59	319.53
170.01	188.72
165.06	218.23
163.79	235.12
162.07	246.15
137.93	340.09
138.34	320.56
122.4	125.91
116.14	293.85
107.58	79.66
107.58	79.66
107.58	79.66
101.97	195.41
81.15	313.62
77.65	205.88
69.24	318.11
507.52	50.32
499.29	107.61
493.93	193.63
476.64	117.3
439.4	189.48
424.7	326.08
424.7	326.08
409.82	106.75
405.25	245.44
398.75	41.57
391.8	50.8
389.31	178.22
389.31	178.22
388.7	42.95
383.35	285.67
378.22	70.65
362.26	225.88
338.73	249.19
337.7	258.78
337.7	258.78
315.56	93.17
306.72	303.25
242.73	62.93
242.73	62.93
242.31	63.96
242.31	63.96
239.54	296.11
225.6	122.75
207.06	5.9
204.56	253.85
177.17	247.87
164.42	296.89
156.83	100.38
147.97	215.29
145.47	106.6
139.58	340.57
138.61	149.64
137.08	104.34
135.95	331.39
131.04	340.22
131.04	340.22
127.69	213.85
125.39	330.79
105.54	313.88
77.44	206.51
69.58	198.75
68.97	318.76
68.59	340.57
534.5	106.91
524.92	106.84
474.53	92.95
454.48	282.6
448.1	281.16
432.95	69.81
430.46	321.07
409.01	63.6
380.33	13.35
380.33	13.35
368.2	300.67
364.63	326.4
364.63	326.4
358.61	301.33
357.69	166.88
290.19	124.1
269.88	246.35
255.76	63.53
251.5	253.9
244.7	253.05
240.88	233.61
233.85	320.91
226.82	94.86
202.49	314.73
201.42	175.33
199.22	297.05
195.93	189.35
183.54	315.15
183.71	175.94
182.2	297.23
174.7	200.49
171.59	169.42
170.48	98.65
169.47	158.63
160.97	212.13
154.54	162.03
151.62	296.95
152.24	194.83
147.2	159.26
147.2	159.26
138.98	332.64
135.38	135.98
123.3	348.13
123.3	348.13
123.3	348.13
112.82	89.27
112.82	89.27
87.22	158.3
75.17	147.24
46.58	297.2
47.48	205.42
532.62	112.33
492.3	204.88
472.06	260.93
396.51	114
394.42	69.42
388.67	105.03
388.42	69.79
379.55	120.56
378.33	77.51
378.33	77.51
367.63	32.59
354.57	30.28
352.22	261.75
342.61	208.53
342.61	208.53
338.94	96.78
333.12	155.94
331.5	95.8
320.07	300.66
314.99	93.73
305.11	296.11
302.82	92.86
283.83	91.69
275.42	231.75
271.18	296.83
261.25	38.96
259.32	92.87
252.85	78.99
245.05	313.83
240.72	319.94
239.98	52.85
232.8	131.18
219.98	29.55
215.21	199.05
214.98	186.97
210.76	29.08
209.18	178.4
204.41	203.51
204.36	181.71
201.27	28.83
199.77	125.76
198.44	167.33
194.86	322.58
194.12	178.13
191.94	194.73
185.87	137.2
186.01	98
183.95	206.93
182.73	214.78
181.86	196.72
178.12	189.89
177.32	224.79
177.27	163.5
170.92	250.83
168.07	256.69
167.6	240
167.14	215.13
165.04	170.94
159.15	206.03
158.59	198.14
159.56	27.3
155.14	21.21
153.61	168.12
142.16	133.48
138.75	162.63
135.18	156.37
134.01	227.64
134.13	98.08
130.3	159.83
118.63	353.24
117.18	105.43
115.93	302.21
112.49	309.44
112.49	309.44
113.4	197.28
112.78	73.57
106.04	247.03
106.04	247.03
105.17	256.68
100.94	353
95.03	302.04
85.97	205.49
85.5	147.29
83.78	255.82
80.33	213.69
75.8	326.12
76.37	247.13
76.37	247.13
69.34	304.26
56.24	203.55
37.6	297.77
36.93	186.12
531.66	140.55
473.83	255.92
431.53	186.29
431.53	186.29
428.35	332.97
409.83	56.63
405.47	38.32
388.61	105.22
385.39	117.84
384.88	57.08
376.66	115.46
376.66	115.46
374.94	125.13
364.94	262.16
356.36	246.78
352.76	106.3
352.56	116.6
351.62	24.01
351.02	112.17
338.61	300.03
333.46	296.46
333.92	260.38
321.98	95.18
319.63	300.37
313.77	151.81
306.86	115.73
303.72	184.53
289.36	349.56
270.74	20.21
256.98	250.2
250.28	63.86
250.28	63.86
248.14	319
245.76	48.98
245.76	48.98
244.89	38.78
240.12	52.68
237.36	226.51
234.32	301.2
232.85	131.4
232.21	297.55
226.25	297.5
222.49	251.23
213.35	19.55
212.76	122.84
209.33	187.69
206.84	197.08
204.34	203.49
203.93	187.86
203.93	187.86
203.66	171
202.01	198.93
202.01	198.93
200.21	297.78
199.17	29.53
196.35	254.01
194.93	322.49
195.06	206.91
193.06	166.7
192.65	170.92
191.06	220.07
189.79	180.69
189.19	256.36
187.14	171.71
185.29	301.42
185.72	166.03
183.71	249.91
183.03	223.78
182.59	214.61
181.94	326
181.94	196.68
179.5	321.36
176.23	232.73
174.55	298.16
172.37	32.67
169.23	204.19
168.19	231.26
168.25	198.25
167.05	84.02
163.86	199.56
163.86	199.56
163.63	160.05
153.93	318.12
153.23	322.73
153.23	322.73
151.45	201.77
151.45	201.77
148.23	324.37
142.46	322.8
142.46	322.8
141.66	119.15
139.25	313.97
139.25	313.97
138.57	162.27
137.27	223.96
133.97	227.49
131.11	202.05
129.22	154.5
127.06	336.65
126.66	352.7
125.87	302.31
124.86	309.59
123.78	325.4
123.49	192.76
123.64	213.94
123.64	213.94
123.39	196.92
118.98	353.03
119.64	313.94
113.59	84.09
111.84	242.62
111.84	242.62
108.52	204.77
108.52	204.77
108.37	135.75
107.88	239.21
107.07	196.81
99.01	298.1
96.4	230.22
91.31	222.27
91.31	222.27
91.22	214.06
88.4	230.38
88.4	230.38
86.56	238.28
86.56	238.28
85.58	147.49
80.56	222.14
76.27	247.24
76.27	247.24
75.97	296.48
75.82	230.25
75.82	230.25
75.67	291.71
72.21	266.97
65.49	207.52
53.38	309.78
40.97	302.26
40.97	162.53
37.13	171.09
25.53	298.32
3.99	302.59
431.13	203.23
431.13	203.23
413.09	114.93
405.26	253.61
405.38	238.17
401.16	112.09
398.12	72.15
391.42	72.59
389.48	171.45
389.48	171.45
383.31	298.62
379.08	295.87
370.22	217.3
365.98	253.33
364.8	99.01
359.22	102.91
353.35	122.24
351.46	99.16
349.21	20.46
347.38	105.4
338.91	174.24
333.03	161.76
329.24	245.36
309.97	226.53
300.95	260.53
289.75	176.53
284.51	308.4
284.51	308.4
280.69	247.16
277.75	331.18
277.75	331.18
277.98	169.48
271.43	350.5
270.87	92.89
267.42	310.76
265.81	220.54
265.81	220.54
263.74	241.43
257.97	239.31
257.3	315.27
253.31	82.9
252.64	229.13
252.52	73.84
249.22	238.2
245.03	297.7
238.76	297.99
230.21	134.36
226.89	37.6
222.57	236.25
221.7	37.37
220.33	187.81
218.4	183.55
215.64	252.74
213.56	194.2
211.79	16
207.45	123.32
206.56	36.39
204.38	33.46
204.38	33.46
202.66	4.51
202.66	4.51
199.7	207.55
197.81	230.55
198.23	220.07
198.23	220.07
197.6	184.95
192.08	98.52
184.96	182.1
184.58	193.66
183.14	173.89
182.54	257.62
180.54	7.08
179.32	339.2
179.32	339.2
179.45	167.49
178.88	344.23
179.23	232.84
178.8	201.58
178.8	201.58
178.32	23.38
176.79	347.99
177.06	325.62
176.58	336.03
172.76	228
172.76	228
171.85	220.23
168.83	223.91
168.64	298.5
167.88	34.86
164.91	165.25
161.55	141.65
160.99	151.45
161.09	29.29
160.51	298.9
160.68	208.77
160.6	162.49
158.01	205.42
150.55	13.87
146.26	302.15
142.95	113.71
143.22	101.25
139.29	95.58
135.42	314.35
131.91	319.54
131.91	309.37
131.79	198.05
130.37	210.38
127.15	323.16
127.15	323.16
126.42	344.31
124.43	319.51
124.32	201.06
124.32	201.06
124.12	210.05
121.79	298.83
121.79	298.83
120.83	320.58
119.78	344.28
116.55	325.49
112.79	109.91
112.44	309.05
112.44	309.05
111.7	157.42
110.46	259.99
108.86	302.16
109.08	123.81
106.44	320.87
101.25	318.04
101.66	209.73
100	309.58
96.37	234.32
92.1	218.28
92.1	218.28
85.01	302.53
85.01	302.53
84.7	308.97
77.98	234.24
77.98	234.24
76.48	332.7
74.99	201.32
74.19	284.48
72.56	294.4
71.45	332.73
71.45	332.73
71.68	288.22
71.61	202.99
70.99	259.97
71.21	208.32
67.37	149.41
64.58	203.45
64.58	203.45
58.7	208.94
50.18	186.87
32.38	301.93
31.31	310.13
23.63	301.94
2.92	309.87
412	52.88
411.08	46.8
397.41	46.07
394.61	73.87
394.61	73.87
375.06	74.41
358.62	121.93
357.58	116.66
356.93	100.08
354.46	97.39
348.94	30.32
344.61	101.77
340.6	296.91
331.87	243.67
320.78	198.85
320.78	198.85
316.78	297.33
303.45	313.83
298.04	147.4
287.07	243.88
287.07	243.88
286.91	239.6
286.91	239.6
286.91	239.6
268.05	163.67
268.05	163.67
264.71	313.19
264.56	134.95
262.51	188.65
262.51	188.65
260.41	243.57
259.2	158.73
256.4	131.05
256.4	131.05
254.35	94.39
253.92	312.35
248.14	248.96
247.35	61.44
246.56	300.54
222.31	228.88
213.89	181.49
212.51	230.13
212.25	199.58
212.41	128.26
200.79	35.96
200.72	233.1
199.49	33.43
198.23	227.55
196.37	348.79
196.23	298.54
194.84	192.33
194.79	181.32
189.78	233.89
187.45	231.25
187.55	228.38
186.05	298.36
185.41	207.32
185.03	323.06
184.25	169.43
184.25	169.43
182.77	236.67
182.73	230.65
182.12	346.61
182.14	336.34
182.14	336.34
181.7	341.63
179.28	209.58
178.99	127.11
177.54	329.86
177.28	198.9
177.09	301.03
176.78	176.1
176.38	33.51
174.62	225.58
174.64	213.48
171.76	243.61
171.94	215.75
171.94	215.75
172.2	210.95
172.2	210.95
171.65	173.69
168.6	347.01
170.56	340.14
170.57	301.38
169.62	326.05
168.76	210.58
166.4	31.97
164.91	18.29
159.72	235.39
157.71	102.67
156.28	221.54
155.44	298.93
153.43	104.02
148.62	3.16
143.6	70.66
142.94	97.31
142.56	107.7
141.08	159.22
140.43	126.88
139.56	211.02
137.96	230.55
136.2	243.44
136.2	243.44
135.11	310.08
133.13	93.33
130.51	305.91
127.43	298.87
127.41	200.79
127.41	200.79
124.1	226.49
123.74	322.28
122.43	306.98
122.02	303.67
120.98	331.23
117.87	226.57
117.73	100.27
114.32	218.54
112.73	234.94
112.83	153.74
112.4	251.44
112.62	226.5
112.62	226.5
111.71	95.01
107.94	239.95
106.5	305.92
106.32	245.35
106.4	200.89
105.43	323.95
105.7	257.66
103.94	212.36
103.6	206.97
103.6	206.97
103.76	202.44
101.19	320.78
100.94	226.13
100.51	152.59
97.98	218.51
97.98	218.51
96.9	253.91
97.12	251.15
97.12	251.15
95.56	136.21
95.56	136.21
94.37	240.33
88.86	234.23
87	242.5
84.84	234.21
84.84	234.21
82.89	305.61
82.89	305.61
82.88	226.1
81.86	250.97
81.86	250.97
79.42	242.68
77.57	251.03
76.63	248.45
72.44	300
71.98	317.99
71.24	242.53
71.24	242.53
63.58	210.34
59.24	301.24
57.01	157.12
54.07	207.1
53.64	192.41
52.94	159.71
49.6	301.5
48.87	157.18
46.43	160.24
45.68	200.97
42.97	298.89
41.01	301.64
40.48	63.3
34.64	299.24
22.36	310.37
14.26	301.82
