経過時間は 0.000219 秒です。
no.1
Finding keypoints...
664 keypoints found.
Finding keypoints...
519 keypoints found.

Finding keypoints...
664 keypoints found.
Finding keypoints...
585 keypoints found.

Dense Sift Extraction......sift_all
経過時間は 2.430572 秒です。

 Sift Flow Estimation 2 3経過時間は 9.732824 秒です。
no.2
経過時間は 9.778361 秒です。
no.3

経過時間は 10.252016 秒です。
no.4
Initial error = 63616.3 
iteration = 1, current residue = 57837.5 
iteration = 2, current residue = 55946.3 
iteration = 3, current residue = 55112.2 
Initial error = 68469.4 
iteration = 1, current residue = 62148.9 
iteration = 2, current residue = 60077.6 
iteration = 3, current residue = 59156.1 
Initial error = 67101.9 
iteration = 1, current residue = 60934.7 
iteration = 2, current residue = 58927 
iteration = 3, current residue = 58042.6 
Initial error = 131708 
iteration = 1, current residue = 119478 
iteration = 2, current residue = 115547 
iteration = 3, current residue = 113760 
Initial error = 133638 
iteration = 1, current residue = 121204 
iteration = 2, current residue = 117164 
iteration = 3, current residue = 115362 
Initial error = 130911 
iteration = 1, current residue = 118647 
iteration = 2, current residue = 114676 
iteration = 3, current residue = 112895 
Initial error = 135165 
iteration = 1, current residue = 122206 
iteration = 2, current residue = 117945 
iteration = 3, current residue = 115978 
Initial error = 140802 
iteration = 1, current residue = 126967 
iteration = 2, current residue = 122477 
iteration = 3, current residue = 120414 
Initial error = 141521 
iteration = 1, current residue = 127524 
iteration = 2, current residue = 122910 
iteration = 3, current residue = 120795 
経過時間は 25.519187 秒です。
no.5
経過時間は 25.639105 秒です。
no.6,7
