204.63	423.58
204.63	423.58
205.26	296.86
63.14	476.95
63.14	476.95
134.53	243.76
103.17	489.4
47.31	98.76
223.04	473.21
175.76	419.66
151.31	377.79
73.2	41.79
73.2	41.79
327.27	29.29
323.9	412.46
261.2	493.66
134.34	95.54
134.34	95.54
152.47	434.61
96.61	444.31
96.61	444.31
49	174.04
159.2	461.56
155.72	362.99
155.72	362.99
122.29	203.91
94.19	342.72
94.19	342.72
75.98	320.77
75.98	320.77
66.03	151.32
54.25	355.5
54.25	355.5
45.93	147
259.47	522.54
212.21	476.57
195.34	466.33
159.32	338.21
159.32	338.21
133.99	514.62
110.42	186.43
110.42	186.43
110.42	186.43
78.15	300.67
75.59	367.24
63.91	131.12
56.12	292.61
43.99	310.77
40.46	336.14
40.46	336.14
33.22	261.77
168.78	138.78
140.87	270.58
111.96	61.22
109.77	515.92
103.26	465.03
102.48	118.08
102.48	118.08
94.47	364.3
94.47	364.3
90.42	170.41
56.31	515.15
51.23	252.3
33.09	129.37
248.89	507.89
237.88	504.82
185.13	357.05
185.13	357.05
157.78	445.62
156.35	164.36
156.35	164.36
155.25	145.22
155.25	145.22
144.24	139.37
119.61	464.19
93.33	404.59
88.22	519.43
75.05	402.69
76.86	213.36
68.29	269.67
64.42	393.35
62.21	69.35
58.56	185.99
46.79	191.19
37.13	515.76
37.13	515.76
37.55	53.55
31.75	182.8
24.09	108.22
220.49	508.86
220.49	508.86
179.93	465.92
172.93	505.98
157.88	445.81
145.27	166.06
139.46	517.75
120.65	504.68
120.65	504.68
94.69	304.04
94.79	106.53
88.56	355.59
80.68	305.78
76.22	322.47
75.81	145.19
73.96	314.18
72.47	388.22
71.32	191.29
66.13	157.82
55.25	234.57
38.63	132.54
18.72	127.68
168.56	497.99
168.56	497.99
146.28	250.82
102.25	350.96
93.78	143.09
93.78	143.09
91.74	382.06
91.35	472.64
89.97	97.68
86.21	425.99
84.37	439.58
84.2	89.99
79.33	424.48
78.31	434.87
76.63	241.1
76.62	229.31
72.51	69.9
72.51	69.9
55.75	192.07
55.96	134.97
53.85	286.22
50.23	20.47
50.23	20.47
44.39	279.14
43.31	296.49
37.39	313.73
28.8	167.16
286.9	505.93
239.96	509.75
185.65	448.33
179.75	443.98
178.71	480.09
174.84	123.32
155.73	485.38
143.06	191.08
143.06	191.08
143.24	180.3
143.24	180.3
141.66	272.74
134.86	202.14
129.53	327.65
129.53	327.65
128.08	77.06
111.52	333.58
108.56	130.6
106.4	418.73
103.72	298.85
103.09	519.56
99.35	456.27
96.24	385.64
92.28	299.26
92.28	299.26
90.41	437.6
89.44	311.11
87.41	145.93
84.55	82.62
83.72	294.34
83.85	288.09
83.34	455.85
83.34	455.85
82.39	140.08
80.05	102.2
79.04	84.92
73.39	285.53
71.79	431.54
71.89	79.41
69.69	317.82
67.65	369.16
55.96	342.19
55.92	50.64
48.51	161.91
39.37	302.1
36.64	278.67
36.77	186.08
33.73	160.14
29.93	517.71
25.23	276.89
23.6	59.96
21.8	293.71
20.01	280.46
10.1	133.74
5.59	129.19
213.38	458.84
206.43	450.19
205.58	455.43
196.86	515.2
196.86	515.2
176.99	449.38
175.6	497.55
175.6	497.55
161.8	496.84
161.8	496.84
157.77	503.89
157.77	503.89
155.57	500.45
145.44	511.74
144.39	245.26
142.4	191.79
135.28	202.86
126.85	170.9
126.85	170.9
123.8	317.02
123.87	167.09
116.86	180.41
111.53	333.41
99.61	364.82
96.89	343.82
96.89	343.82
95.98	348.73
95.98	348.73
94.24	153.07
91.38	461.25
91.67	305.47
90.85	386.57
89.53	311.09
89.19	118.43
89.19	118.43
86.94	115.19
86.05	460.87
86.05	460.87
86.59	385.28
86.59	385.28
85.68	165.37
80.29	102.28
77.53	453.25
75.05	448.8
73.4	285.48
73.01	488.9
61.18	163.3
60.19	60.84
58.32	74.64
56.82	205.99
49.68	302.16
31.29	278.06
13.27	66.23
9.74	133.53
291.49	63.44
285.55	115.2
284.88	167.73
260.66	523.11
221.18	467.91
218.73	464.26
209.24	454.62
209.27	445.42
209.27	445.42
207.92	507
207.92	507
206.98	473.55
195.08	445.61
177.78	460.07
175.7	464.52
171.91	509.1
163.8	267.59
160.41	262.46
158.97	494.34
157.18	257.29
157.18	257.29
155.21	507.92
155.21	507.92
144.88	447.85
141.43	175.2
137.4	145.89
137.4	145.89
135.54	184.25
135.36	179.26
134.93	173.57
134.44	148.49
133.17	325.64
132.06	162.83
130.53	313.29
128.68	152.51
123.09	171.51
122.24	264.08
119.76	98.42
107.38	332.72
103.09	338.4
98.81	355.49
96.48	460.59
95.65	294.59
95.65	294.59
94.86	371.88
93.23	381.28
93.07	123.93
92.15	161.83
90.66	299.28
90.45	291.16
88.58	111.49
88.58	111.49
87.55	103.82
87.11	360
85.92	377.68
84.72	100.18
82.46	383.71
80.65	390.43
79.73	108.45
72.19	164.96
68.61	167.74
68.45	67.48
67.05	71.72
66.67	164.14
65.74	75.48
65.03	62.84
65.03	62.84
61.3	240.14
59.49	229.03
59.78	150.91
51.63	291.83
51.63	291.83
48.92	149.43
43.87	148.48
40.8	290.69
38.43	147.65
37.96	270.05
32.98	274.31
33.28	146.75
28.6	146.25
28.6	146.25
23.81	534.73
23.44	145.63
23.44	145.63
3.41	285.25
342.24	126.86
342.24	126.86
327.17	60.68
327.17	60.68
322.55	60.98
320.22	50.02
317	61.65
311.25	62.06
311.25	62.06
305.49	62.52
300.47	432.96
300.01	63.02
300.01	63.02
296.25	52.51
290.91	152.6
291.09	144.06
291.15	140.11
291.19	82.57
291.06	78.62
291	74.39
289.75	183.11
289.93	179.64
288.92	206.24
289.15	202.47
288.58	217.21
287.75	239.31
287.26	250.18
287.38	246.7
287.09	253.65
286.42	268.24
286.58	264.22
285.97	279.04
286.07	275.05
285.45	431.34
285.45	431.34
285.39	289.06
284.93	302.72
285.13	296.07
284.88	179.41
284.04	199.91
283.39	332.25
280.9	388.46
280.32	399.88
280.58	64.83
278.04	342.28
277.65	357.07
277.59	350.98
277.67	66
277.07	367.28
275.51	426.69
274.77	432.18
271.79	66.59
271.79	66.59
268.94	66.39
268.94	66.39
262.75	66.72
262.75	66.72
257.01	67.54
251.03	67.99
251.03	67.99
211.52	493.84
209.15	501.08
207.58	478.26
174	502.34
147.53	78.08
142.54	513.38
141.83	79.26
136.8	80
136.8	80
135.02	153.91
131.62	81.03
131.62	81.03
128.76	521.97
127.11	82.05
123.92	458.61
122.76	82.73
107.14	149.1
103.49	132.01
102.69	356.24
100.95	361
101.16	126.59
98.3	339.63
97.6	518.32
97.6	518.32
94.12	324.14
89.02	123.52
88.6	380.37
88.6	380.37
87.25	371.81
86.76	355.07
85.99	310.32
77.45	148.09
75.15	87.5
71.79	435.9
70.57	295.59
70.57	295.59
64.97	68.06
63.89	78.47
63.75	70.41
59.49	53.6
55.5	56.44
55.03	181.46
53.88	149.97
53.64	35.44
52.2	32.12
50.68	28.53
47.69	239.9
46.05	291.43
46.05	291.43
35.24	272.19
29.08	531.45
29.13	271.03
23.71	531.81
