match before
match end
make_x end

real	0m0.245s
user	0m0.240s
sys	0m0.004s
match before
match end
make_x end

real	0m0.216s
user	0m0.216s
sys	0m0.000s
match before
match end
make_x end

real	0m0.214s
user	0m0.212s
sys	0m0.000s
match before
match end
make_x end

real	0m0.241s
user	0m0.240s
sys	0m0.000s
match before
match end
make_x end

real	0m0.241s
user	0m0.240s
sys	0m0.000s
match before
match end
make_x end

real	0m0.244s
user	0m0.240s
sys	0m0.000s
match before
match end
make_x end

real	0m0.215s
user	0m0.208s
sys	0m0.004s
match before
match end
make_x end

real	0m0.246s
user	0m0.244s
sys	0m0.000s
match before
match end
make_x end

real	0m0.216s
user	0m0.216s
sys	0m0.000s
match before
match end
make_x end

real	0m0.226s
user	0m0.224s
sys	0m0.000s
match before
match end
make_x end

real	0m0.217s
user	0m0.212s
sys	0m0.004s
match before
match end
make_x end

real	0m0.215s
user	0m0.212s
sys	0m0.000s
match before
match end
make_x end

real	0m0.208s
user	0m0.204s
sys	0m0.004s
match before
match end
make_x end

real	0m0.244s
user	0m0.240s
sys	0m0.000s
match before
match end
make_x end

real	0m0.244s
user	0m0.240s
sys	0m0.004s
match before
match end
make_x end

real	0m0.249s
user	0m0.244s
sys	0m0.004s
match before
match end
make_x end

real	0m0.246s
user	0m0.240s
sys	0m0.004s
match before
match end
make_x end

real	0m0.246s
user	0m0.244s
sys	0m0.000s
match before
match end
make_x end

real	0m0.208s
user	0m0.204s
sys	0m0.004s
match before
match end
make_x end

real	0m0.246s
user	0m0.244s
sys	0m0.000s
match before
match end
make_x end

real	0m0.209s
user	0m0.208s
sys	0m0.000s
match before
match end
make_x end

real	0m0.243s
user	0m0.240s
sys	0m0.000s
match before
match end
make_x end

real	0m0.244s
user	0m0.240s
sys	0m0.004s
