252.25	96.86
235.75	292
171.13	359.19
118.71	121.04
118.71	121.04
225.92	225.39
170.57	417.76
170.57	417.76
43.32	451.78
247.45	416.31
114.24	208.87
62.22	150.22
62.22	150.22
58.38	52.34
58.38	52.34
40.53	403.71
142.24	176.15
142.24	176.15
324.32	235.13
321.3	478.31
273.26	500.76
259.47	200.44
251.01	269.3
155.75	134.55
128.73	307.14
124.62	414.89
94.58	58.83
79.44	414.01
68.13	237.94
40.38	297.85
323.74	206.75
311.25	162.41
295.28	509.01
297.84	112.07
289.45	464.75
289.45	464.75
286.55	165.28
286.55	165.28
262.27	169.69
262.27	169.69
262.27	169.69
252.45	452.87
215.16	269.13
195.53	347.96
120.68	320.71
104.48	223.62
99.9	102.08
79.2	93.8
42.42	249.89
330.46	187.1
330.46	187.1
323.71	435.25
311.18	189.64
311.18	189.64
294.77	508.81
282.47	137.59
278.46	214.28
258.1	378.88
219.63	476.72
220.86	171.73
205.98	188.49
167.84	288.37
161.89	155.45
161.89	155.45
102.57	429.1
102.5	248.28
102.5	248.28
74.28	263.6
74.28	263.6
50.99	142.55
36.12	172.56
15.97	457.98
277.91	243.01
243.88	365.7
217.53	379.23
171.78	116.66
171.78	116.66
166.6	171.62
149.35	194.2
128.04	163.1
89.95	28.12
77.22	25.51
74.06	443.75
53.06	363.57
51.94	193.93
24	504.93
13.84	512.84
13.84	512.84
9.66	475.8
324.9	453.4
311.85	476.9
311.85	476.9
297.78	185.57
293.08	435.53
288.75	129.27
282.5	430.95
269.88	440.01
263.45	262.65
259.45	432.92
259.45	432.92
248.68	182.3
236.83	433.21
236.79	162.46
233.5	468.56
223.76	263.74
200.65	332.1
200.01	283.03
194.54	402.72
193.07	119.34
193.07	119.34
192.39	147.19
190.78	198.86
184.65	234.24
183.11	139.98
183.11	139.98
181.84	214.56
182.2	191.36
182.2	191.36
172.24	196.09
171.76	144.51
169.37	157.16
165.47	203.87
160.88	188.54
156.41	344
144.36	166.15
144.36	166.15
127.64	184.96
109.99	370.91
109.04	340.21
108.05	309.31
106.84	278.05
97.58	271.28
97.58	271.28
95.3	445.84
87.21	277.45
87.21	277.45
84.8	298.77
74.01	327.87
62.08	356.29
25.94	515.2
330.6	409.65
328.48	480.61
327.48	464.03
303.22	243.96
303.22	243.96
269.49	440.51
244.78	171.56
244.78	171.56
240.25	367.42
237.57	208.65
237.57	208.65
235.15	401.49
232.89	469.58
227.97	201.86
228.26	184.99
225.27	368.06
223.4	192.76
215.67	254.89
215.97	185.73
215.97	185.73
209.36	368.18
203.65	455.3
200.67	331.97
195.29	157.15
195.55	463.18
193.18	415.3
193.39	401.45
191.38	220.02
191.38	220.02
188.48	455.04
183.78	115.12
183.78	115.12
177.77	432.93
177.77	432.93
175.47	187.03
175.47	187.03
170.28	216.63
170.28	216.63
153.98	293.86
154.75	159.74
153.32	401.01
153.25	309.38
145.29	436.51
145.29	436.51
144.63	418.68
144.63	418.68
144.31	397.19
144.31	397.19
141.17	325.84
141.17	325.84
141.17	325.84
138.61	147.03
112.62	174.08
112.62	174.08
106.25	360.51
96.1	299.35
91.34	257.17
87.34	434.1
80.21	287.62
68.9	316.57
60.56	309.85
25.47	515.22
332.67	283.69
333.21	265.68
333.13	115.63
318.87	467.4
303.5	285.21
303.6	221.99
302.7	390.18
302.87	361.33
303.06	342.67
303.19	333.99
303.24	323.65
303.35	314.47
303.38	304.24
303.41	295.65
303.42	275.53
303.28	257.14
301.8	433.33
288.09	508.75
279.17	144.12
276.26	166.51
275.58	183.68
268.76	397.46
268.77	199.07
269.58	160.5
267.64	389.13
267.37	253.73
261.85	435.93
261.85	435.93
259.62	473.18
256.53	254.7
252.63	200.33
240.08	162.56
237.02	533.77
231.55	153.33
228.05	455.79
228.05	455.79
226.71	440.52
226.71	440.52
226.11	396.51
226.11	396.51
220.72	177.42
220.39	435.39
220.39	435.39
208.26	350.8
208.05	342.53
208.01	335.68
207.91	327.63
207.89	313.17
207.88	289.01
196.22	164.91
195.1	171.7
195.1	171.7
185.8	440.12
185.8	440.12
186.03	326.51
185.27	422.3
185.27	422.3
184.92	396.18
184.92	396.18
185.56	383.82
178.84	413.77
175.85	384.05
160.67	166.02
154.55	177.2
138.57	433.67
137.87	399.28
136.9	289.31
131.67	175.29
117.2	453.92
117.2	453.92
111.18	383.43
108.44	238.78
108.44	238.78
106.09	362.24
103.92	301
76.43	316.1
74.11	429.34
332.64	341.59
322.32	178.41
320.63	138.14
310.52	251.01
309.09	435.27
309.22	428.68
309.24	417.4
309.48	403.56
302.05	439.35
299.03	138.46
298.23	443.48
298.33	122.66
293.72	447.46
293.72	447.46
293.72	447.46
284.86	447.57
276.08	454.52
275	175.29
274.19	404.76
270.13	179.22
269.6	171.06
268.38	455.91
268.36	410.32
257.73	389.89
254.87	442.81
249.88	446.99
248.88	389.87
244.79	442.37
241.14	446.69
240.16	389.85
240.07	255.63
237.02	442.47
236.92	335.08
235.8	394.25
232.6	446.64
231.63	389.94
230.83	256.32
227.82	261.11
226.36	476.19
224.1	446.35
223.75	166.44
223.14	389.92
222.18	160.63
220.3	399.42
220.3	399.42
219.48	442.24
215.56	446.44
214.54	389.68
209.54	512.48
209.19	244.16
207.53	455.93
207.94	357.74
206.93	446.1
205.78	389.84
203	362.17
203.13	354.47
202.93	346.79
202.94	339.37
202.36	441.84
202.32	316.2
202.23	308.57
202.3	301.78
202.24	292.36
201.98	265.31
199.77	144.11
198.64	196.22
197.29	389.83
195.53	456.49
195.53	456.49
192.76	217.38
192.76	217.38
190.1	445.74
188.87	389.92
186.87	316.76
187.27	299.52
186.1	287.65
186.1	287.65
185.45	282.39
185.45	282.39
184.39	409.64
184.36	402.86
180.48	389.85
178.89	180.03
179	128.04
177.65	173.81
177.65	173.81
169.78	176.94
169.36	441.11
167.98	384.68
164.29	215.58
163.45	272.7
161.17	440.88
159.28	393.41
159.43	385.29
155.45	389.47
150.5	384.92
147.12	389.62
147.41	384.33
145.9	194.96
138.84	389.4
137.97	172.78
136.19	440.5
134.78	384.82
131.58	154.52
128.06	440.27
120.53	172.56
119.41	440.23
113.99	241.9
108.59	238.39
108.59	238.39
105.15	175.12
98.85	317.84
98.1	396.22
91.43	242.31
87.78	288.17
87.78	288.17
75.74	297.07
65.05	344.53
56.62	225.23
53.97	373.78
53.97	373.78
38.36	494.28
38.36	494.28
31.91	474.02
20.11	475.7
337.72	251.05
321.02	158.03
320.58	138.11
314.11	221.93
314.11	221.93
312.71	440.18
311.14	473.97
310.24	290.1
310.42	270.94
310.44	251.41
310.34	223.61
309.78	366
309.77	347.42
310	328.62
310.13	309.41
309.32	428.86
309.27	423.44
309.35	417.29
309.51	403.45
309.65	384.83
305.27	119.33
303.89	161.92
301.66	439.54
299.29	138.5
293.83	481.85
290.1	443.38
290.1	443.38
282.42	192.28
280.61	443.45
276.65	446.68
275.68	454.71
272.84	414.04
272.16	422.84
271.69	451.69
271.69	451.69
271.38	432.53
267.96	441.9
266.72	446.76
266.72	446.76
265.52	477.04
263.51	178.51
262.98	189.57
262.92	467.69
262.27	443.09
261.43	394.61
257.79	259.57
255.95	465.68
255.95	465.68
252.07	480.08
252.07	480.08
244.4	394.5
242.95	204.44
243.26	189.52
242.44	470.92
242.64	200.01
242.48	150.92
242.48	150.92
241.18	446.72
241.18	446.72
236.31	168.02
235.71	394.32
232.81	361.19
232.81	361.19
232.73	277.51
232.73	277.51
232.73	271.21
232.73	271.21
231	200.22
229.72	232.67
229.72	232.67
228.57	260.7
227.16	469.89
226.42	476.07
225.93	187.46
218.56	394.26
217.61	162.85
212.25	523.03
211.98	437.21
210.85	398.15
209.57	225.75
209.57	225.75
209.57	225.75
208.91	519.54
207.63	533.46
205.59	437.65
203.27	354.39
203.07	339.3
202.68	271.91
201.28	394.13
198.12	461.04
196.5	177.4
196.5	177.4
195.84	331.85
194.45	441.92
193.22	216.57
193.22	216.57
193.26	394
191.96	170.09
191.96	170.09
191.28	324.45
190.14	445.8
190.14	445.8
187.3	299.56
187.32	120.16
186.98	129.97
186.46	156.9
185.88	286.8
185.88	286.8
182.23	160.31
180.56	423.3
180.45	417.21
180.2	412.58
179.88	404.96
180.03	129.88
179.63	398.25
179.63	398.25
179.68	156.46
179.51	147.46
178.97	206.23
177.07	441.19
176.3	393.93
173.25	445.12
173.25	445.12
169.33	441.05
168.04	393.58
164.54	215.65
163.84	389.47
163.34	297.99
161.18	337.53
160.57	325.92
160.12	318.79
159.55	385.4
159.5	313.03
159.42	300.36
158.66	166.17
156.74	445
154.99	272.85
154.99	272.85
153.59	301.64
153.59	301.64
152.48	288.03
151.62	393.61
149.42	169.14
148.86	162.88
148.34	444.86
148.34	444.86
148.03	325.65
140.96	158.44
140.19	444.68
140.19	444.68
138.74	191.37
136.29	440.52
134.71	393.42
133.26	166.02
132.01	444.44
130.58	389.38
126.91	179.23
126.53	393.33
124.94	452.56
122.86	389.48
121.68	448.82
118.29	393.13
115.57	443.97
115.57	443.97
115.57	443.97
114.11	389.3
111.98	439.92
110.42	393.01
108.4	180.13
107.59	443.77
106.05	389.26
106.05	389.26
106.05	389.26
102.44	385.54
102.44	385.54
100.69	241.22
100.69	241.22
99.27	317.81
89.43	74.14
89.03	66.05
87.77	288.5
87.77	288.5
87.93	49.99
73.25	400.34
65.11	346.34
64.75	242.76
56.98	331.3
51.74	67.67
51.66	53.63
49.08	70.64
44.02	63.52
34.79	514.62
34.79	514.62
34.47	505.7
32.97	493.87
32.59	482.71
32.59	482.71
31.09	464.14
31.09	464.14
337.9	234.29
337.55	270.34
336.74	327.93
336.91	309.56
337.08	289.44
336.5	346.72
335.78	402.75
335.61	422.25
335.7	416.15
325.78	476.28
325.78	476.28
313.29	331.21
304.79	525.29
305.28	119.39
302.31	326.33
302.4	307.13
302.47	293.42
302.53	254.32
302.61	249.03
301.79	421.53
301.91	406.62
301.76	401.01
301.88	387.86
301.92	382.37
302.16	344.66
301.68	432.14
301.66	426.24
301.66	426.24
299.52	251.69
299.01	347.43
296.04	490.28
292.47	487.81
286.35	455.38
279.63	408.84
279.07	195.09
279.07	195.09
278.39	433.27
278.49	423.11
278.54	200.62
275.07	198.58
275.07	198.58
273.87	403.66
274.05	391.98
271.42	200.5
269.34	477.53
269.41	187.1
269.41	187.1
269.16	383.37
268.07	255.96
267.82	183.81
264.6	182.24
264.93	150.91
264.55	173.53
263.78	472.01
261.8	171.15
259.25	490.43
259.25	490.43
258.77	482.14
258.77	482.14
258.15	181.18
257.64	177.68
249.92	442.19
249.15	256.42
248.89	158.14
248.23	183.89
248.23	183.89
246.97	534.76
247.19	192.64
247.19	192.64
246.73	197.4
244.54	478.55
244.54	478.55
243.44	194.3
243.04	156.93
240.19	395.01
240.16	155.06
240.16	155.06
238.05	474.23
238.05	474.23
237.43	188.49
237.43	188.49
235.83	364.61
236.05	260.01
230.09	193.23
227.07	464.83
226.64	159.28
226.64	159.28
224.92	197.94
221.85	188.11
221.85	188.11
218.49	195.32
215.58	441.59
214.74	394.75
210.54	161.46
210.21	164.81
208.35	526.46
208.27	441.47
208.23	490.7
208.23	490.7
208.13	483.44
208.13	483.44
208.2	476.4
208.2	476.4
208.13	469.96
208.06	370.88
207.72	374.53
206.93	394.8
204.22	397.88
204.2	169.09
202.69	448.82
202.69	448.82
201.92	483.64
201.92	483.64
201.58	469.73
198.23	319.95
198.12	312.69
198.12	312.69
196.71	394.7
197.02	288.77
195.47	469.68
194.95	324.69
194.76	311.64
194.72	302.75
194.72	302.75
194.52	292.13
193.88	307.98
193.88	307.98
193.88	307.98
194.17	285.82
191.67	317.9
191.47	301.04
191.47	301.04
191.27	293.87
191.27	293.87
189.97	214.46
188.68	185.63
187.18	174.97
186.56	311.05
186.61	130.59
186.71	120.31
185.84	448.38
185.84	448.38
186.2	157.28
186.2	147.99
185.61	198.78
185.21	207.49
184.34	171.01
180.35	119.94
179.97	156.94
179.31	206.77
179.36	198.42
179.75	163.65
176.2	453.68
172.89	172.9
169.5	225.57
169.34	271.85
164.09	321.5
164.07	311.23
160.89	447.76
156.86	440.4
156.24	280.28
156.24	280.28
155.44	394.25
154.3	318.21
154.05	194.3
153.35	167.74
152.4	447.72
152.4	447.72
151.5	147.79
150.97	198.81
150.41	193.41
149.83	345.72
149.61	158.31
149.61	158.31
148.75	308.01
147.29	384.86
144.33	447.56
144.33	447.56
144.6	184.33
143.26	331.55
143.47	174.08
143.47	174.08
142.99	320.45
141.11	285.29
141.11	285.29
141.05	182.82
141	151.09
137.96	165.4
137.71	180.26
136.31	329.75
136.25	447.41
136.25	322.82
135.74	188.08
133.15	332.68
133.15	332.68
133.14	289.67
132.8	282.62
131.73	439.88
129.58	291.5
129.58	291.5
127.84	447.21
127.84	447.21
124.86	169.27
124.5	442.94
121.62	384.78
119.39	177
118.78	168.99
111.61	447.33
111.61	447.33
111.61	447.33
103.96	447.28
103.96	447.28
103.96	447.28
86.47	31.89
86.54	27.23
85.49	67.22
68.52	443.55
68.54	222
65.81	309.58
64.43	324.26
62.57	406.12
56.72	72.42
39.39	505.15
35.7	522.59
35.53	518.94
35.53	518.94
34.61	489.93
33.75	500.26
32.98	487.02
32.31	455.89
32.31	455.89
31.49	468.63
30.03	505.64
29.62	447.54
29.62	447.54
26.54	409.96
26.54	409.96
336.01	384.07
324.05	460.96
319.78	484.95
318.09	477.59
318.09	472.58
315.34	483.79
315.54	475.42
315.54	475.42
312.45	522.7
311.9	470.47
311.54	172.59
311.54	172.59
308.24	167.67
308.22	158.2
302.29	337.79
302.52	269.21
301.6	118.48
298.85	488.28
295.89	522.18
293.06	429.94
293.06	429.94
289.25	447.68
283.06	423.11
283.06	423.11
282.59	408.47
282.51	195.14
281.64	414.52
281.05	455.12
280.4	447.4
280.4	447.4
279.85	437.25
279.79	418.16
278.54	476.57
278.54	476.57
278.44	414.78
276.19	193
276.19	193
275.43	451.47
274.52	476.95
271.44	455.67
271.68	447.22
269.07	386.37
267.53	166.84
264.45	168.53
264.45	168.53
264.28	164.94
264.28	164.94
262.88	446.99
262.88	446.99
262.96	184.96
262.02	390.76
262.02	390.76
261.57	167.12
261.13	484.2
258.89	174.04
258.89	174.04
258.89	174.04
258.53	165.63
257.13	487.47
256.81	171.64
256.81	171.64
256.07	184.05
254.26	446.91
254.26	446.91
254.08	471.49
254.04	171.38
253.32	390.54
253.32	390.54
253.24	158.72
253.24	158.72
252.27	474.05
251.02	168.96
250.2	204.76
248.91	164.34
248.11	477.64
247.15	481.42
246.3	472.33
246.3	472.33
245.46	446.79
245.46	446.79
244.44	532.93
244.54	390.25
244.54	390.25
244.68	164.86
238.47	167.65
238.39	70.8
238.39	70.8
236.9	446.66
236.9	446.66
237.05	153.62
235.9	390.57
235.9	390.57
235.56	369.87
232.81	368.79
232.81	368.79
228.41	446.67
228.41	446.67
228.26	195.96
228.58	190.52
228.58	190.52
228.08	156.15
227.38	390.44
227.38	390.44
227.4	77.91
225.73	162.36
225.73	162.36
223.28	158.27
221.46	196.89
221.46	196.89
219.86	446.34
219.86	446.34
218.82	390.23
218.82	390.23
218.82	189.31
214.79	196.85
213.8	158.63
211.31	446.63
211.31	446.63
210.35	178.71
210.25	390.15
210.25	390.15
208.48	168.01
206.84	182.51
204.57	369.47
201.77	183.21
201.55	390.25
201.78	228.8
197.65	305.24
197.65	305.24
197.71	301.01
197.71	301.01
194.96	318.32
194.96	318.32
194.34	448.98
194.31	314.73
193.06	390.08
193.06	390.08
191.52	313.27
191.52	313.27
191.21	305.32
189.4	441.33
189.4	441.33
189.19	394.67
189.19	394.67
188.83	303.28
188.85	177.42
187.25	169.35
187.25	169.35
186.73	305.35
185.81	446.38
185.81	446.38
184.92	184.59
184.67	389.8
184.67	389.8
183.54	293.43
183.54	293.43
181.88	285.28
180.69	160.75
177.46	445.65
177.46	445.65
177.15	280.37
176.3	389.23
176.3	389.23
175.38	170.92
174.66	273.15
173.96	279.75
171.85	274.76
169.69	453.18
169.16	445.45
169.16	445.45
167.95	336.29
167.45	268.63
167.45	268.63
165.5	177.84
164.58	332.68
164.58	332.68
164.43	328.53
164.43	328.53
163.88	305.73
163.88	305.73
163.95	302.58
163.6	394.13
161.63	281.28
160.91	445.01
160.91	445.01
161.12	273.98
159.59	390.34
159.59	390.34
159.18	295.55
158.63	272.36
158.63	272.36
157.35	332.28
156.49	342.77
156.49	342.77
156.39	200.23
155.64	385.64
153.66	347.17
154.08	291.76
154.08	291.76
153.72	314.82
153.4	278.36
153.09	295.51
152.5	444.84
152.5	444.84
151.3	389.73
151.3	389.73
151.49	298.98
151.04	333.96
151.04	333.96
151.03	182.37
150.73	172.97
146.2	329.29
146.2	329.29
145.92	322.45
145.92	322.45
146.1	175.28
144.34	444.75
144.34	444.75
143.73	288.46
143.73	288.46
142.99	389.68
142.99	389.68
142.24	281.78
141.94	189.28
140.92	169.01
139.64	331.6
139.64	331.6
139.17	320.45
139.17	320.45
138.39	385.31
138.16	393.99
137.95	284.39
138.08	183.62
137.87	172.41
137.87	172.41
137.86	155.74
137.86	155.74
137.41	282.57
136.1	444.5
136.1	444.5
135.84	189.19
135.46	326.21
135.46	326.21
134.7	389.51
134.7	389.51
132.01	286.31
132.01	286.31
132.01	286.31
132.17	172
130.52	178.09
127.91	444.21
126.48	389.78
126.48	389.78
122.37	442.52
119.72	444.05
114.63	452.09
111.91	450.63
111.91	450.63
111.64	443.93
111.64	443.93
110.18	389.43
110.18	389.43
108.6	450.56
105.98	384.92
105.98	384.92
101.92	389.46
83.71	29.51
83.45	25.23
82.91	16.78
70.44	300.68
70.05	470.24
68.43	481.4
68.6	448.17
62.45	372.11
61.28	323.57
35.32	497.38
35.32	497.38
34.32	510.36
30.86	514.89
30.2	460.8
30.14	420.5
