1800.315000000000055
-900.139999999999986
-900.174999999999955
-900.139999999999986
7600.178888888889560
-900.038888888888891
-5800.000000000000000
-900.038888888888891
2700.088101010101127
-900.028000000000020
-900.021212121212102
-900.028000000000020
2700.214666666666744
-900.116666666666674
-900.070000000000050
-900.116666666666674
2700.174247311827912
-900.022580645161270
-900.034999999999968
-900.022580645161270
2700.103015427770060
-900.049999999999955
-900.030434782608722
-900.049999999999955
2700.248333333333449
-900.058333333333280
-900.139999999999986
-900.058333333333280
7600.116666666666788
-900.058333333333280
-5800.000000000000000
-900.058333333333280
2700.155929487179492
-900.043750000000045
-900.053846153846166
-900.043750000000045
1800.393749999999955
-900.350000000000023
-900.174999999999955
2700.369444444444525
-900.077777777777783
-900.116666666666674
-5800.000000000000000
-900.077777777777783
8500.194444444445253
-900.046666666666624
-900.070000000000050
-900.021212121212102
-900.046666666666624
3600.223434343434292
-900.038888888888891
-900.116666666666674
-900.070000000000050
-900.038888888888891
3600.230416666666770
-900.043750000000045
-900.077777777777783
-900.034999999999968
-900.043750000000045
3600.156527777777683
-900.058333333333280
-900.019444444444389
-900.030434782608722
-900.058333333333280
3600.304944586530382
-900.174999999999955
-900.041176470588198
-900.139999999999986
-900.174999999999955
3600.706176470588161
-900.041176470588198
-900.350000000000023
-5800.000000000000000
-900.041176470588198
8501.441176470587379
-900.700000000000045
-900.700000000000045
-900.053846153846166
-900.700000000000045
3601.127179487179546
-900.139999999999986
-900.233333333333348
-900.350000000000023
-900.139999999999986
2700.521818181818162
-900.031818181818153
-900.116666666666674
2700.165878787878682
-900.028000000000020
-900.021212121212102
-900.070000000000050
-900.028000000000020
3600.844666666666853
-900.700000000000045
-900.046666666666624
-900.116666666666674
-900.700000000000045
3601.283333333333303
-900.233333333333348
-900.233333333333348
-900.077777777777783
-900.233333333333348
3600.549747474747619
-900.063636363636419
-900.174999999999955
-900.019444444444389
-900.063636363636419
3600.224257278669029
-900.100000000000023
-900.041176470588198
-900.041176470588198
-900.100000000000023
3600.404944586530291
-900.030434782608722
-900.233333333333348
-900.350000000000023
-900.030434782608722
3600.657518115941912
-900.043750000000045
-900.233333333333348
-900.700000000000045
-900.043750000000045
3601.677083333333485
-900.233333333333348
-900.700000000000045
-900.233333333333348
-900.233333333333348
3600.527592592592555
-900.034999999999968
-900.025925925925890
-900.031818181818153
-900.034999999999968
7600.066818181818235
-5800.000000000000000
-900.021212121212102
2700.082081686429774
-900.030434782608722
-900.030434782608722
-900.046666666666624
-900.030434782608722
3600.179626701800771
-900.063636363636419
-900.038888888888891
-900.233333333333348
-900.063636363636419
3600.646969696969791
-900.174999999999955
-900.174999999999955
-900.174999999999955
-900.174999999999955
3600.816666666666606
-900.350000000000023
-900.116666666666674
-900.041176470588198
-900.350000000000023
3600.631176470588343
-900.100000000000023
-900.139999999999986
-900.233333333333348
-900.100000000000023
3600.397101449275397
-900.030434782608722
-900.033333333333303
-900.233333333333348
-900.030434782608722
3600.462101449275451
-900.058333333333280
-900.139999999999986
-900.700000000000045
-900.058333333333280
3600.819202898550884
-900.030434782608722
-900.030434782608722
-900.025925925925890
-900.030434782608722
3600.331360708534703
-900.100000000000023
-900.174999999999955
-5800.000000000000000
-900.100000000000023
12500.100000000000364
-5800.000000000000000
-900.030434782608722
2700.078015427769969
-900.024999999999977
-900.022580645161270
-900.038888888888891
-900.024999999999977
3600.155525252525422
-900.063636363636419
-900.028000000000020
-900.174999999999955
-900.063636363636419
3600.433080808080831
-900.116666666666674
-900.077777777777783
-900.116666666666674
-900.116666666666674
3600.498484848484622
-900.233333333333348
-900.031818181818153
-900.139999999999986
-900.233333333333348
3600.497675438596616
-900.036842105263190
-900.087499999999977
-900.033333333333303
-900.036842105263190
3600.220175438596470
-900.100000000000023
-900.049999999999955
-900.139999999999986
-900.100000000000023
3600.318749999999909
-900.043750000000045
-900.034999999999968
-900.030434782608722
-900.043750000000045
3600.949184782608427
-900.174999999999955
-900.700000000000045
-900.174999999999955
-900.174999999999955
3600.440559440559355
-900.063636363636419
-900.026923076923026
-5800.000000000000000
-900.063636363636419
7600.117482517483040
-900.053846153846166
-900.022580645161270
2700.074503722084501
-900.024999999999977
-900.026923076923026
-900.028000000000020
-900.024999999999977
3600.081763102725290
-900.015555555555579
-900.013207547169827
-900.077777777777783
-900.015555555555579
3600.333333333333485
-900.100000000000023
-900.139999999999986
-900.031818181818153
-900.100000000000023
3600.391077441077414
-900.025925925925890
-900.233333333333348
-900.087499999999977
-900.025925925925890
3600.245049857549930
-900.053846153846166
-900.077777777777783
-900.049999999999955
-900.053846153846166
3600.838846153846134
-900.700000000000045
-900.034999999999968
-900.034999999999968
-900.700000000000045
3601.108333333333576
-900.233333333333348
-900.139999999999986
-900.700000000000045
-900.233333333333348
3601.010434782608627
-900.030434782608722
-900.046666666666624
-900.026923076923026
-900.030434782608722
3600.315691192864961
-900.024999999999977
-900.233333333333348
-900.053846153846166
-900.024999999999977
2700.142482517482676
-900.063636363636419
-900.026923076923026
2700.790559440559264
-900.700000000000045
-900.063636363636419
-900.013207547169827
-900.700000000000045
3600.993207547169732
-900.233333333333348
-900.046666666666624
-900.139999999999986
-900.233333333333348
3601.213333333333139
-900.700000000000045
-900.139999999999986
-900.233333333333348
-900.700000000000045
3601.119999999999891
-900.046666666666624
-900.139999999999986
-900.077777777777783
-900.046666666666624
3600.284861111111240
-900.043750000000045
-900.116666666666674
-900.034999999999968
-900.043750000000045
3600.222499999999854
-900.043750000000045
-900.100000000000023
-900.139999999999986
-900.043750000000045
3600.246002964427134
-900.030434782608722
-900.031818181818153
-900.046666666666624
-900.030434782608722
3600.247536231884169
-900.139999999999986
-900.030434782608722
-900.233333333333348
-900.139999999999986
3600.456666666666933
-900.049999999999955
-900.033333333333303
-900.063636363636419
-900.049999999999955
2700.213636363636397
-900.100000000000023
-900.063636363636419
2700.242525252525411
-900.139999999999986
-900.038888888888891
-900.046666666666624
-900.139999999999986
3600.350303030303166
-900.100000000000023
-900.063636363636419
-900.139999999999986
-900.100000000000023
3601.039999999999964
-900.700000000000045
-900.100000000000023
-900.139999999999986
-900.700000000000045
3601.114999999999782
-900.174999999999955
-900.100000000000023
-900.116666666666674
-900.174999999999955
8500.338333333333139
-900.046666666666624
-5800.000000000000000
-900.100000000000023
-900.046666666666624
3600.235512820512668
-900.053846153846166
-900.034999999999968
-900.031818181818153
-900.053846153846166
3600.171328671328411
-900.031818181818153
-900.053846153846166
-900.030434782608722
-900.031818181818153
3600.395586297760019
-900.100000000000023
-900.233333333333348
-900.033333333333303
-900.100000000000023
3600.533333333333303
-900.049999999999955
-900.350000000000023
-900.100000000000023
-900.049999999999955
2700.237500000000182
-900.087499999999977
-900.038888888888891
2700.409477124183013
-900.020588235294099
-900.350000000000023
-900.063636363636419
-900.020588235294099
3600.201707116412763
-900.063636363636419
-900.053846153846166
-900.100000000000023
-900.063636363636419
3601.563636363636306
-900.700000000000045
-900.700000000000045
-900.100000000000023
-900.700000000000045
3601.266666666666424
-900.233333333333348
-900.233333333333348
-5800.000000000000000
-900.233333333333348
8500.436969696969754
-900.139999999999986
-900.063636363636419
-900.034999999999968
-900.139999999999986
3600.248888888888814
-900.034999999999968
-900.038888888888891
-900.053846153846166
-900.034999999999968
3600.847179487179346
-900.058333333333280
-900.700000000000045
-900.233333333333348
-900.058333333333280
3600.508333333333212
-900.116666666666674
-900.100000000000023
-900.350000000000023
-900.116666666666674
3600.816666666666606
-900.174999999999955
-900.174999999999955
-900.087499999999977
-900.174999999999955
2700.349999999999909
-900.087499999999977
-900.350000000000023
1800.386842105263213
-900.036842105263190
-900.053846153846166
-900.036842105263190
2700.324021592442477
-900.233333333333348
-900.700000000000045
-900.233333333333348
2701.166666666666515
-900.233333333333348
-900.233333333333348
-900.233333333333348
2700.606666666666570
-900.139999999999986
-900.063636363636419
-900.139999999999986
2700.553636363636542
-900.350000000000023
-900.038888888888891
-900.350000000000023
2700.622222222222263
-900.233333333333348
-900.700000000000045
-900.233333333333348
2701.050000000000182
-900.116666666666674
-900.100000000000023
-900.116666666666674
2700.294444444444707
-900.077777777777783
-900.174999999999955
-900.077777777777783
7600.252777777777737
-5800.000000000000000
-900.087499999999977
-5800.000000000000000
6700.087499999999636
